<svg id="Capa_1" data-name="Capa 1" xmlns="http://www.w3.org/2000/svg" viewBox="0 0 193.6 188.2">
  <defs>
    <style>
      .cls-1 {
        fill: #fff;
      }

      .cls-2, .cls-3, .cls-4, .cls-5, .cls-6 {
        fill: none;
        stroke: #00a0de;
        stroke-miterlimit: 10;
        stroke-width: 0.6px;
      }

      .cls-3 {
        stroke-dasharray: 2.04 2.04;
      }

      .cls-4 {
        stroke-dasharray: 1.98 1.98;
      }

      .cls-5 {
        stroke-dasharray: 1.97 1.97;
      }

      .cls-6 {
        stroke-dasharray: 1.99 1.99;
      }

      .cls-7 {
        fill: #00a0de;
      }
    </style>
  </defs>
  <title>map_Venezuela</title>
  <path class="cls-1" d="M1066.2,126.8h0Zm-1,.4h0Zm.3.1Zm.2.1h0Zm.3.2h0Zm-.9,0Zm-.2,0v.2h.2Zm.1.1Zm-.1.2Zm-.1-.7h0Zm.7,0Zm-9.1,3.2Zm-11.7,15.3Zm-5.4,2h-.1v.2Zm-36.2-30h0Zm.2,0Zm11.2.3h0Zm-11-.2Zm.3.2Zm-.3.1h0Zm8.3.7Zm3.1.1h.2v-.2h-.1Zm-2.1.1Zm1.4.1h0Zm8.5.6v-.2h-.2v.4h-.1Zm-9-.1h0Zm.1-.1h0Zm1.7,0-.2-.2v.2h.2Zm-4.7.5h0Zm4.9.2h-.1v.2h.1Zm49.2,7.1.4.4h-.4Zm-18.5,16.9h.3v-.2h-.3Zm-4.4,1.4h.1v-.4h-.2Zm-15,.6h.4v-.2h-.1l-.7-.3h-.2l.2.2h.5Zm70.3,18.3.2-.3v-.9h-.3l-.5.2-.4.3v1l-.3.6.3-.2.7-.3.3-.3h0Zm-2,2h-.6l-.3.2v1.2l.2.2h.1l.5-.3v-.5h.1l1.2-1.3.2-.2h.9v-.3h0v-.2h0v-.2l-.8.3h-.6l-.5.8Zm2.7-3.4-.2.4v1.1h.3l.2-.2v-.4l.2-.2.4-.3h.5v-.2h-.1l-.2-.3h-.3l-.3.2Zm-3,10.9.3-.2.2-.4V173H1094l-.4.5h-.2l.2.2h-.3l-.5-.4-.3-.2h-.4l-.2.3-.2.3-.2.4h.5l1.6.2,1.2-.2v-.2l-.2-.2v-.2Zm-41.5-35.9h.4l.2-.3v-.4l-.4-.2h-.4l-.3-.2h-.3v.4h.7v.3Zm-38.6-17h.5l.3-.2h-.3v-.6h-.1l-.2.5-.3.2h-.8l.4.2Zm-14.9-5h0Zm.1,0h0Zm0,.3h0Zm0,.3Zm0,.1h0Zm.1.6h0Zm12.7,2h0Zm-.4,1.9h0Zm-.6.1h0Zm1.1-.3.7-.3h-.3l-.9.4h.5Zm37.1,15.4h-.6v.3h.7l.2-.2v-.2h-.2Zm21.6,8.5v-.8h-.1l-.8-1-.4-.5-.4-.6h0v.4h0v.6l.2.3.4.2.5.4.2.3h.1l.3.3h0v.2Zm5.8,4.3h-.2l-.3.3-.2.5v.2h.8l.2-.2v-.5h-.2Zm-2.1.7-.2-.5-.2-.2h-.1v1l.2.2h.2v-.3h-.1Zm.9,1.4h-.2v.7l.2.5h.2v-1.3Zm-28.7-17h.7l1.1.2h.3l.4-.4.2.2.3.2.3.3.3.6h.6v.5l.3-.2.9-.3h.3l.8.2.4-.9.3-.3h.4v-.2h.4v-.4l-.4-1v-.3l-.2-.6v-.5h-.2l-.2-.2v-.3l-.2.2-.4.5-.2.2h-.6v.2h0v.2h-.1l-.2.2v.7h-.1l-.2.3H1051l-.5-.4-.5-.2v-.9h-.7l-.4.2h-1.5v.6l-.3.8h.2Zm-14.6.8h.3l.2.2h1.4v.2l.4-.2h.2V135l-.2-.3.2-.2h-.7l-.7-.3h-1l-.4.3v.4l.3.3Zm-11-14.4h.4l.2-.3v-.3h-1.3l.3.3Zm21.3-.8h1.4v-.6h0l-.5-.4-.2-.2v.2l-.3.5h-.2v.2h-.1Zm54.4,46.5-.3-.2-.2-.2h-.7l-.2.2v.2h0v.2h-.2l-.2.2h-.1l-.2.6-.5.8-.2.3-.8.6h.3l1.9-.9.6-.5.4-.4.2-.5-.2-.4h.4Zm14,10.6-1.5-1.9-.9-1.5h-.9l-.5-.4-.5-.3h-.6l-2.5-.2-.4.2-.4.6-.2.4-.2.4h-.3l-.9-.3h-1.4l-.2-.2-.2-.2h-.1l-.2-.2-1.8.2-1.4.2h-.6l-.3-.2h-.1v.8h-.2v.2h0v.2h-.7v.9h-.2v-.8l.5-.2.2-.2v-.2h-2.4l-.3.2-.2.2v.7l-.5.4v-.3l-.4-.2-.2-.2V175h-.4l-.5.2h-.4v-.3h-.3l-.3-.2v-.2h-1.5l-.7-.5v-.5l.2-.2h.5l.6.4h.6l2.5-.2h.2l.8.3h.6l.4-.3v-1.4l.2-.7.8-1.2.2-.7v-.8l.2-.7v-.2l.2-.5h.1l.5-.7h.5v-.4h.1v-.4h0v-.2l.2-.2v-.5l-.4.3-1.2,1.2h0v.4l-.2.2h-.2l.4-1,.2-.5.3-.2h.3l.8-.9h.5v-.2h.8l.3-.2h.4v-.6h0v-1.3h-.3v-.2h-.1l-.2-.2-.2-.4-.2-.2-.2-.2-.3-.2h-1v-.5h.2v-.3l-.2-.2-.6-.2-.5-.3h-1.1l-.8-.5h-.3l.2.4h-.8l-1.1-.6-.2-.2v-.4l-.3-.2-.2-.3-.4-.2-.2-.3-.4-1v-.2l-.4-.5-.5-.5-.7-.4-.8-.4h.1v.4h.2v.2l.2.3v.2l-.3.2-1-.3h-.2l-1.4-.6h-.5v.3h0l.2.5h.6v.6h.2v0l-.2-.3v-.4l-.3-.3h-.2l-.2.8-.4.9h-.1v-.3l.2-.6.2-.5h0v-.2l-.2-.2h-.1v-.5l-1.1-1.2-1.7-1.5-.4-.3h-.8l-.9-.3h-.3l-.2.2v.2l-.2.4.3.2h1.4l.4.5h.2l.4.2h.2v.2h-1v-.6h-1.1v.4l.3.6v3.1l-.3.6-.5.2.4-.4.2-.7v-2.7l-.6-1.2-.2-.3-.3-.2v.5l.3,1.1v.5l-.3,1.3-.3.5-.4.4-.2-.2v-1.1l-.8-1.6-.2-.4-.2-.2-.2-.2h-.3l.2-.3v-.5l-.2-.3v-.6l-.2-.2V149l-.4-1.4-.3-.5-.6-.5-.3-.2h-.5v.8l.3.7v.4l-.2.3-.3.3-.4.2-.7.2h-.3l-.3-.3h-.4v1.1h-.3v-.4h-.4l-.2-.2h-1v-.4h-.2v.2h0v.6l.2.2h-.2l-.2-.4v-.8h-.5l-.2-.2-.2-.2v-.2h.6l.2-.2h.3v0h.5v.4h.3l.4-.2h.2v.5h.4v-.4h1.9l.3-.3V148h-.1v-.6h-.3v-1.7l-.2-.2-.2-.2-.3-.3h-.1V144h-.2l-.3-.2h-.6l-.5.3h-.5l-.4-.4h-.7v.4h.2v.4l.3.6v.3l-.2.2h-.8l.2-.2V145l-.3-.2h.2l.2-.3h.2l-.2-.2h0v-.4h-.4v-.4h1.5l.2.2h.6v-1.9l-.2-.3h-.5l-.5.3-.8.8-.4.2h0l.2-.2.4-.2.3-.3.2-.3v-.2h.4l3.4-.5h.8l.9.3h2.3l.3.2h.3l.3-.3.7-1.2.2-.2h1.1l1.2.2.4-.2h1.6v-.2h.4v-.2h.4v-.7h-.6l-.3.2v-.2h-.5l-.4.2h-1.5l-.4.3h-3.7l-2-.4h-2l-.4-.2h-.2l-1.5.6h-.5l-.6.3h-.7l-.5-.3h-2.4v-.2h-.2l-1,.8h-1.3v.2l-.3-.2h.1v-.2h-.3v.3h-.6v.2h-.6l-.6.5h-.3l-1.5-.2-1.5-.4-.3-.2-.3-.2v-.4h-.1v1h-.8l-.2.2-.3-.2h-1.9l-.9.4h-.4l-.3-.2h-1l-.2-.3h-.1v.2h0v.2h-.2v.3l.2.4.3.3v1h.4v-.4h.2l.5-.3h1.5v-.2h.3v.3h-.1l.8-.2h.6l.4.2h1.4l.7.4.3.2.3.3h1.1l-.4.2-2,.6h-.9l-.5-.2h-.3l-.9.2h-.9l-.6-.4h-1.2v.5l-.5.3-.8.2-.5.3v.9h-.1V144h-.1v.2h0v.2h-.3l-.3.2h-.7l.2.2h.6l.4-.2h.1v.2h-.2l-.2.2h-.5l-.4.4-.3.2h-.9v-.2h-.4l-.4.2h-.2l-.4.5h-.2l.2.2v.2h-.3l-.2-.3h.2v-.2h-.5v.9l-.2.6v.2l-.2.3-.4.2h-1.6l-.8-.2h-.3l-.2.2-.5.3h-.4l-.3.2h-1.2l-.3-.2v-.2h.3l1.1.4h-.7l-.6-.4-2-.4-2.1-.4-1.8-.6-4.1-2.1.3.5,1.5.7.4.3h-1.6l-.6-.7-.4-.2h-.3l-.3-.5h.8l-1-.6-.2-.5-.5-.3v-.2l-1.1-.9-.4-.6h-.1v-.6h.7l.3-.2v-.2h-.8l-.3-.3-1-.2-.8-.5h-.7v.2l-.2.2-.2.2h-.2l-.8-.2h-2l-3.3.3h-3.7l-.6.3h-.5l-.8.5h-2.3l-2.1.3h-1.2l-1.2.4-1.9.2h-.6l-.4.2h0v.2h-.2v-.2h-1l-.4-.2h-2.3l-.6-.2-.6-.6-.4-.7-.7-1.3-.4-1.4-.2-1v-.7l.2-.2h.9v-.3l-.3-.3h-1.2l-.4-.2h.8l.2.2h.2l.2-.2-.2-.4-.8-2-.6-.9v-.8h0l-.2-.2h-.2l-1-.4v-.4l-.3-.3-.3-.3-1-.6-.4-.3v-.5h-.9l-.5-.2-.3-.2-.3-.2-.5-.6-.2-.2H980l-.2-.2v-.2h-.1l-1-.4h-.7l-.3-.2h-.7l-.4.3-.6.2h-.5l-1.3-.2-.5.2-.4.3-.3.3h-.5l-.6-.5-.5-.7-.7-1.5-.9-2.9v-3.5l-1.3-2.4-.3-.2-.7-.2h-.7l-.3.2-.9.9h-1.1v.9l-.2.3-.4.6v.6l-.2.5v1.3h.3v.4h.2l.3.6v.3h.1v-.2h.3v.7h-.4l.2.3h0v.4h0l-.2.2h0v.4l.3.3.4.2.6-.4h1l.3-.2h.9l.6-.3v.3h.3l.7-.2h.6v.2h.1v-.4h.1l.4.8v.5l.2.8v.5l.3.6v.4l-.2.2-.4.3v.2l-.2.2h-1.2l-.3-.3V126l-.5-.3h-.2v-.3h-1l-.2-.2-.4-.2-.4-.4H965v.2h.2v.2h.2l.8.3h.3v.3h-.3v.2h-.6v.3h-.2l-.2-.2V126h-.5v.2h.3v1l-.4.4-.3.2h-1.2l-.5.4-1.2.5h-1.1l-.4.2v.2h.4l-.3.4-.2.2-1.7.2h-.8l-.4.2-2.2.6-2.7,1.8-.9.4h-.1l-.7.4-1.6.8h-2.4l-.6.2h.2l.3.4h.8l-.2.3-.3.2v.5l.2.3v.7l-.5-.2h-1.2v.3l.3.2v1.3h.1l.4.8h0l-.5.5H945v.4l.2.4.7.5.2.2v1.5h.1l.2.2.3.4v.8l.3.4.2.2v.6l.2.3.5.2.3.3.5.6.3.6.3.8.3,1.4h.3l.3.2.8,1.1.3.4.2.4h-.2v.4l.2.3.3.3.2.3v.2h-.1v.8l-.3,1.2v.2l-.3.4h0v2.3l.2.9v.6l-.2.2h-1.1l-.2.2-.3.5-.3.2-.2.9-.3.4-.5.3-1.3.7-2.1.7h-1.9l-.5-.2-.4-.2v-.2h-.6v-.4l.4-.4-.3-.4v-.2h.1v-.4h-.4v-.2h-.5l.6-.6.2-.2h.2v-.8l-.2-.2h.1v-.3l-.4.3-.3-.2-.4-.5-.3-.3H940v.2l-.2.5v-.4l.2-.4.4-.2h.4v-.2h-.4l-.4-.5h-.2v.3h-.1v-.3l-.3.2-.3.3-.2.2-.3-.4V158l.2.2.2.2h.3v-.7l-.2-.3-.2-.2h.1v-.2h.1v1l.2.2-.7-1.9-.3-.5-1-1.2-.2-.2-.2-.7V153l.2-.5,1-1.2.3-.9.3-.7v-1l.2-.3.3-.2.5-.2.2-.2v-.3l.8-1.2.8-1.8.4-.5.3-.3.3-.2h.2l.4-.4h.6v-1.2l.2-.4v-1h0v-.2l.3-.3v-1l-.6-.4-.4-.4-.4-.6-.2-.5-.3-.7v-1.5l-.5-.6v-.2H943v.5l.6-.2h.1v-.5l-.3-.2-1.6-1.1-.4-.4-.9-1.4-1.1-2.7-.5-2.1v-1.4h.2l.4-.2.3-.2h.6l2.6-.9,2.4-.4.6-.2.8-.5h.5V121h.6l-.2-.3v-.3l.2-.4h-.5l-.2.2-.5.5-.6.3h-.4l-.8.2-.8.3-.9.2-.8.3-.8.2-.9.3-.8.2-.8.3h-.4l-.3.2-.2.4-.2.3-.4.9-.4.9-.5.9-.4.9-.4.9-.4.9-.5.9-.4.9v.2h-.3l-.5-.2h-.6l-.8.3h-.9l-.2.2h-.1v.7l-.2.3-.2.2-.4,1.4-.3.4-.3.3-.6.5-.4.5-.3.7-.7,2.2-.4.8-.8,1.1-.3.9-.2.3-.3.3-.2.3v.9l-.3,3.6-.7,2.9v2.1l.2.3v.7l-.4,1-.8,1.4-.4,1.1v.3l-.2.3-.6.4-.2.2-.3.8-1.1,1.9-.5,1.4-.2.3-.3.3-.5.4-.2.3v.4h2.6l.5-.3.5-.5.2-.2h.4l.3-.2.6-.7h.5v.6h0l.2.2h0v1.4l.3.4h.5l.5-.4h.8l.3.3h.2v.2l-.2.4.2.3v1.1l.2.7.2.7v.7l.2.7.2.7v.7l.2.8v.6l.3.6.3.3.3.3.3.4.2.3.3.4.3.3.3.4.3.3.2.4.4.4h.6v.2l.2.3v.8l-.2.5v.6l.5,1.1.3,1.1v.6l-.2.4h-.8l-.2.3v.4l-.2.2v.2l-.2.2h-.5v.2h0l.3.4v1.5l-.3,1v2l.2.7v1.7l.3.7.6.4.6.3h2.3l.5.8h.1v.7h0v1l.2.4.8,1.8.2.3h.2l.4.2h.2l.3.3.2.2,1.6.4h.8l.2-.2h.5v-.3h1.5v-.3h1l.2.2h.2l.2-.2h1.1l.3.3h.1l.4-.2h2v.2h0v.3h1.7l.2-.2h2l.7-.3.6-.5.2-.2v-.2h.4l.6-.2h.6l.8-.3h.6l.2.2h.1l.5.2h.2l.4-.2h.3l.8,1H961l1.5.8h.4l.8-.5.5-.2h1l.4.5.3.3,1,1.6,1.1,1.5,1.1,1.6,1.1,1.5,1.1,1.6,1.1,1.5,1,1.6,1.1,1.6.4.5h.6l.7-.3h.3l.3.2.6.8.4.2.8-.5.8-.9.3-.2.4-.5h.9l.6.2h.5l.4.2H984l.9.4h.6l.6.3h.6l.3-.3h1.1l1-.3h.6l1,.3h.5l1.6-.7h.6l1.9.2h.5l.5-.2h.4v-.2h0V211h.5l.2-.2.2-.3h1.6l2.2.6.4.3.4.4.4.3h.6l-.4.3-.2.2v.9l.5.9.4.3v1h-.2l-.5.3h-.2l-.7.9v.2l-.9.9-.3.6-.3.7V221l.2,1v.3h.1l.2.2h0v.2h-.3v.6h-.4l-.3.3h-.1l-.4.2h-.1l-.2.2h-.3l-.6.5-.3.7v2.6l-.2.4v.4h0v.2h.1v.2l.2.3h.1v.2h-.1v1l-.2.7v1h0l.2.3h0v.2h0v1l-.2.3v2.5h-.3v.3h.1v.2h.3l.3.2v.8h.3v.4h0v.2l.2.4v.4l-.2.5v2.5l.3.2.2.4.2.5v.7h.1V249l.6,1.2v1.5l.2.4h1.1l.6.3.4.6.9,2.8.2.3.2.2.6.2.4.6v.7l-.4.6-.9,1.3h-.8l-.2.3-.6.7-.7.6-.6.6-.6.7-.6.6-.6.7-.6.6-.6.7-.4.3-.2.5v1.1l.2-.2v-.4h.8l.3-.2h.1l.2.2.5.3h1l.2.2.2.4v1.4h1.1l.2.3h0v.3h.2l.3.2h.1l.2.3h.4v.4h.2l.3.2h.1v.6h.5l.3.3h.1l.5.2.5.4h.1v.8l-.2.3-.3.3v.6l.2.6v.5l.3.7v.2h.7v1.5h-.1l-.2.3v.4h.1v.2l.3.2v.2h.1l.2.6,1.3,3.7v1.7l.3.6v1.6h.2v.2l.2.2v1.1l-.3.6v.3l.3.7,6.6,6.8.9.7.9.2.8-.2h.6l.2.2h.5l.4-.2.4-.6h1.2l.3-.2.3-.3.6-.7.3-.4.3-.2,1.2-.6.6-.5h2.5v.2l.4.5v1l-.2.8-.4.6-.4.6v1.2l.2.2h.9l.4-.3.3-.3.2-.5.3-.3v-.7h0v-.4l.2-.3.8-1.2.3-.2h1.5l.4-.5v-2.1l.4-.7.5-.2h1.1v-.2h.3l.5-.4h1l.3-.3.3-.4h.5l.7.3h.6l1.8-1.3v-.3l.3-.8.3-.4.3-.2.8-.5.6-.5.3-.2h.4l.3.2v.3l-.3.7v1.1h.5l.2-.3.3-.6.3-.4,1-.8.7-.9.7-.4.3-.3.2-.4.2-.4v-1.6l.2-1V282l.3-.6.5-.5.6-.2h2.5l.3-.2,2-1.9.8-.4h.8l.9-.3.5-.2V277l.4-1.1v-1.5l.2-.6v-.2h-2l-.9-.2H1055l-1.7-.5h-1.2l-.2-.2v-1l.5-1.1v-1.7h0v-.2l-.2-.3-.2-.8-1.1-2.5-.5-.6-.5-1.1-.5-.6-.2-.5v-2.8l-.3-2v-.4l.2-.3.3-.6.2-.3v-1.2l-.3-.4-.6-.6-.9-1.1-.3-.3-.7-.3-.5-.3-1.4-1.2-.6-1-.3-.4-.7-.6-.3-.4-.6-1.4-.2-.6v-.3l-.2-.3h-.3l-.3-.2-.3-.2v-1.3l.2-.2h.6l.7.4.6.6.3.6.2.7.2.3.3.2,3.2-.6,1.7.2,1,.3.4.2.3.4.2.4.2.6.2,1.1.3.7.3.5h.6l.6-.3.6-.5.6-.3h.6l.6.3h.6l.8-.2h1l.9,1,.7.3.6-.2v-1.1l.4-.5h.5l.5.3,1,.6.5.5.8,1.3.9.7,1.5,2.1.2.3.2.3.3.2.3.2.3.2h.9l.3-.2.2-.2h.7l.2-.3.3-.6.2-.7v-1.3l-.2-.6v-.6h-.2v-.8l.2-.3v-1.3l.3-.3h1l1.2.2h.4l.2-.7V246h.1l.4-.2h.5v-.4h.1l.5-.2.6.2,2.8,1.3h.5l.6-.2,1.1-.9h2.1l.3-.2h.3l.2-.2.8-.9.3-.2h2.9v-.2h.2v-1.7l.2-.4.6-.3h2.2l.2-.3v-.3l-.3-.7v-.2h1.3l.5.3h.5l.8-.2,1.2-.2.5-.3.4-.6v-1l.4-1.1h.7l1.3-.7.7-.4.5-.6,1-1.3.3-.8v-.8l-1-2.8-.2-.3h-.8L1098,227l-1.1-1.3-1.1-1.4-1.1-1.3-1-1.4-1.1-1.3-1.1-1.4-1.1-1.4-.5-.5-.2-.7.2-.2.4-.3h.2l.7-1.3.2-.5v-.2h1.1v-.2l.2-.5h.7v-1.3h-.1v-.2h-.1l-.2-.2h-.1V210h0v-1.4h0v-.4l-.2-.5v-.2l-.2-.3h-.2v-1.1l.2-.6.3-.5.5-.6v-.2h.9v-.3h.6l.3-.2h1l.4-.5h0v-.2l-.2-.2v-.2h2l.5.4h.5l.3-.3.4-.7.2-.2h.3l1-.3,1.8-1.3h.4l.2.2.2-.8v-.3l.2-.2.3-.2.2-.2v-1.1l-.2-.2V197l-.5-.3-.2-.2h-2l-.2.3-.3.6h-.2l-1-.9h-.1l-.2-.5v-.5l.2-.5.4-.3h0V194h-.1v-.9h-.4v-.2h-.1l-.2-.2h-.4l-.3-.7v-.5l.2-.4.7-.3.2-.3.2-.4V189h.5v-.4l.2-.5h0v-.5h.1l.3-.5.3-.6.2-.2h2.2l.3-.3v-.3l.4-.4.6-.5.3-.3.2-.2v-.3l.7-.3.3-.2.2-.3.3-.2h1.4l.2-.3v-1.8l.4-.3v-.2h.3l.7-.2h.3l.3-.2.3-.2v-.7Z" transform="translate(-918.6 -113.9)"/>
  <g>
    <path class="cls-2" d="M935.7,142l.9-.4" transform="translate(-918.6 -113.9)"/>
    <path class="cls-3" d="M938.4,140.7c10-4.3,45.1-16.4,70.3,11.8" transform="translate(-918.6 -113.9)"/>
    <path class="cls-2" d="M1009.3,153.2l.7.8" transform="translate(-918.6 -113.9)"/>
  </g>
  <g>
    <path class="cls-2" d="M1010.7,157l-1-.3" transform="translate(-918.6 -113.9)"/>
    <path class="cls-4" d="M1007.8,156.3c-8.5-1.8-34.2-4.7-56.5,19.2" transform="translate(-918.6 -113.9)"/>
    <path class="cls-2" d="M950.7,176.3a2.3,2.3,0,0,0-.7.7" transform="translate(-918.6 -113.9)"/>
  </g>
  <g>
    <path class="cls-2" d="M946.3,175l-.9-.2" transform="translate(-918.6 -113.9)"/>
    <path class="cls-5" d="M943.5,174.3c-5.8-1.8-17.5-8.2-9.9-28.4" transform="translate(-918.6 -113.9)"/>
    <path class="cls-2" d="M934,144.9l.3-.9" transform="translate(-918.6 -113.9)"/>
  </g>
  <g>
    <path class="cls-2" d="M936.3,144l.7.7" transform="translate(-918.6 -113.9)"/>
    <path class="cls-6" d="M938.5,146.1c7.1,6.2,31.6,23.7,70.6,9.9" transform="translate(-918.6 -113.9)"/>
    <path class="cls-2" d="M1010.1,155.7l.9-.4" transform="translate(-918.6 -113.9)"/>
  </g>
  <g>
    <path class="cls-7" d="M950.9,178.8h-.1a.4.4,0,0,0-.4-.4.3.3,0,0,0-.3.3l-.9-.5V178c0-.2-.1-.4-.3-.4h-.1l-.2-.3c.1,0,.1-.1.1-.2s-.1-.4-.3-.4v-.9h0c.2,0,.3-.2.3-.4a.4.4,0,0,0-.1-.3V175h.2c.2,0,.3-.2.3-.4v-.2a1.9,1.9,0,0,1,.9-.5l.3.2c.2,0,.4-.1.4-.3h.3c0,.2.1.3.4.3l.3-.2.9.5v.2a.4.4,0,0,0,.4.4h.1l.2.3-.2.2c0,.2.2.3.4.4v.4a.7.7,0,0,1-.1.5c-.1.1-.3.2-.3.4a.3.3,0,0,0,.1.2v.3H953a.4.4,0,0,0-.4.4v.2l-.9.5q-.1-.3-.3-.3a.4.4,0,0,0-.4.4h-.2m1.5-6.2c0-.1.1-.2.3-.2a.8.8,0,0,0,.7.4.9.9,0,0,0,.1-1.7,2.1,2.1,0,0,0-1.9.2v-.9h1.3v-1.3h-1.3v-1.3h-1.3v1.3h-1.4v1.3h1.4v.8a2.5,2.5,0,0,0-1.9-.1.9.9,0,0,0-.6,1c0,.4.4.6.7.7a1.2,1.2,0,0,0,.8-.4l.3.2a3.9,3.9,0,0,0,1.4,7.6,4,4,0,0,0,3.9-3.9,4.1,4.1,0,0,0-2.5-3.7" transform="translate(-918.6 -113.9)"/>
    <path class="cls-7" d="M949.9,175.1a.4.4,0,1,0-.4-.4.4.4,0,0,0,.4.4" transform="translate(-918.6 -113.9)"/>
    <path class="cls-7" d="M950.9,175.1a.4.4,0,1,0,0-.8c-.2,0-.3.2-.3.4s.1.4.3.4" transform="translate(-918.6 -113.9)"/>
    <path class="cls-7" d="M952,175.1c.2,0,.3-.2.3-.4s-.1-.4-.3-.4a.4.4,0,1,0,0,.8" transform="translate(-918.6 -113.9)"/>
    <path class="cls-7" d="M949.4,175.9a.4.4,0,0,0,.4-.4c0-.2-.2-.3-.4-.3s-.4.1-.4.3a.4.4,0,0,0,.4.4" transform="translate(-918.6 -113.9)"/>
    <path class="cls-7" d="M950.1,175.5c0,.2.1.4.3.4a.4.4,0,0,0,.4-.4c0-.2-.2-.3-.4-.3a.3.3,0,0,0-.3.3" transform="translate(-918.6 -113.9)"/>
    <path class="cls-7" d="M951.1,175.5a.4.4,0,0,0,.4.4c.2,0,.3-.2.3-.4a.3.3,0,0,0-.3-.3c-.3,0-.4.1-.4.3" transform="translate(-918.6 -113.9)"/>
    <path class="cls-7" d="M952.1,175.5a.4.4,0,0,0,.4.4c.2,0,.3-.2.3-.4a.3.3,0,0,0-.3-.3c-.2,0-.4.1-.4.3" transform="translate(-918.6 -113.9)"/>
    <path class="cls-7" d="M949.2,176.4c0-.2-.1-.4-.3-.4a.4.4,0,0,0-.4.4c0,.2.2.3.4.3a.3.3,0,0,0,.3-.3" transform="translate(-918.6 -113.9)"/>
    <path class="cls-7" d="M949.9,176a.4.4,0,0,0-.4.4c0,.2.2.3.4.3s.4-.1.4-.3a.4.4,0,0,0-.4-.4" transform="translate(-918.6 -113.9)"/>
    <path class="cls-7" d="M950.9,176c-.2,0-.3.2-.3.4a.3.3,0,0,0,.3.3c.2,0,.4-.1.4-.3a.4.4,0,0,0-.4-.4" transform="translate(-918.6 -113.9)"/>
    <path class="cls-7" d="M952.3,176.4c0-.2-.1-.4-.3-.4a.4.4,0,0,0-.4.4c0,.2.1.3.4.3a.3.3,0,0,0,.3-.3" transform="translate(-918.6 -113.9)"/>
    <path class="cls-7" d="M952.6,176.4c0,.2.2.3.4.3a.3.3,0,0,0,.3-.3c0-.2-.1-.4-.3-.4a.4.4,0,0,0-.4.4" transform="translate(-918.6 -113.9)"/>
    <path class="cls-7" d="M949.8,177.2a.4.4,0,1,0-.8,0c0,.2.2.3.4.3s.4-.1.4-.3" transform="translate(-918.6 -113.9)"/>
    <path class="cls-7" d="M950.8,177.2a.4.4,0,0,0-.4-.4c-.2,0-.3.2-.3.4a.3.3,0,0,0,.3.3c.2,0,.4-.1.4-.3" transform="translate(-918.6 -113.9)"/>
    <path class="cls-7" d="M951.8,177.2c0-.2-.1-.4-.3-.4a.4.4,0,0,0-.4.4c0,.2.1.3.4.3a.3.3,0,0,0,.3-.3" transform="translate(-918.6 -113.9)"/>
    <path class="cls-7" d="M952.5,176.8a.4.4,0,0,0-.4.4c0,.2.2.3.4.3a.3.3,0,0,0,.3-.3c0-.2-.1-.4-.3-.4" transform="translate(-918.6 -113.9)"/>
    <path class="cls-7" d="M949.9,177.6a.4.4,0,1,0,.4.4.4.4,0,0,0-.4-.4" transform="translate(-918.6 -113.9)"/>
    <path class="cls-7" d="M951.3,178a.4.4,0,0,0-.4-.4c-.2,0-.3.2-.3.4s.1.4.3.4a.4.4,0,0,0,.4-.4" transform="translate(-918.6 -113.9)"/>
    <path class="cls-7" d="M952,177.6a.4.4,0,1,0,0,.8c.2,0,.3-.2.3-.4s-.1-.4-.3-.4" transform="translate(-918.6 -113.9)"/>
    <path class="cls-7" d="M956,177.9a1.3,1.3,0,0,0-.9,1.1l-.4.2h-.5a3.8,3.8,0,0,0,.9-1.5l.6-.4a3,3,0,0,0,1.6-1.1c.3-.5.4-1.3.7-1.8a2.8,2.8,0,0,0-2.3,2.6l-.5.4a5,5,0,0,0,.2-1.2c0-.3-.1-.6-.1-.9s.8-.2,1.1-.8.5-1.6.8-1.8c-1.5.1-2.5.8-2.1,2.6h0a2.8,2.8,0,0,1,.1.9,5.9,5.9,0,0,1-.2,1.3h0a5.9,5.9,0,0,1-1.3,1.8h1.1l1.7-.5c.4-.4.7-1,1.2-1.6l-1.7.5" transform="translate(-918.6 -113.9)"/>
    <path class="cls-7" d="M945.9,177.9a1.3,1.3,0,0,1,.9,1.1l.5.2h.5a4,4,0,0,1-1-1.5l-.6-.4a3,3,0,0,1-1.6-1.1,12.7,12.7,0,0,0-.6-1.8,3,3,0,0,1,2.3,2.6l.4.4a5,5,0,0,1-.2-1.2c0-.3.1-.6.1-.9s-.8-.2-1-.8a3.6,3.6,0,0,0-.9-1.8c1.5.1,2.6.8,2.1,2.6h0c0,.3-.1.6-.1.9a5.9,5.9,0,0,0,.2,1.3h.1a4.4,4.4,0,0,0,1.2,1.8h-1a8.4,8.4,0,0,1-1.7-.5,11.2,11.2,0,0,1-1.3-1.6l1.7.5" transform="translate(-918.6 -113.9)"/>
  </g>
  <g>
    <path class="cls-7" d="M935.1,145.7H935c0-.2-.2-.3-.4-.3l-.3.2-.9-.5h0c0-.3-.1-.4-.3-.4H933l-.2-.2a.4.4,0,0,0,.1-.3.3.3,0,0,0-.3-.3,4.3,4.3,0,0,0-.1-.5c0-.2.1-.3.1-.5h0a.3.3,0,0,0,.3-.3.4.4,0,0,0-.1-.3v-.2h.2a.3.3,0,0,0,.3-.3v-.3a1.9,1.9,0,0,1,.9-.5.3.3,0,0,0,.3.3.4.4,0,0,0,.4-.4h.3a.4.4,0,0,0,.4.4.3.3,0,0,0,.3-.3l.9.5a.4.4,0,0,0-.1.3.4.4,0,0,0,.4.3h.1c.1,0,.1.1.1.2v.3c0,.2.2.3.4.3v.5a1.1,1.1,0,0,1-.1.5.3.3,0,0,0-.3.3c0,.1.1.2.1.3v.2h-.1a.4.4,0,0,0-.4.4h0l-.8.5-.3-.2c-.3,0-.4.1-.4.3h-.2m1.5-6.3c0-.1.1-.2.2-.1a1.9,1.9,0,0,0,.8.3.8.8,0,0,0,.8-.7.9.9,0,0,0-.7-.9,2.1,2.1,0,0,0-1.9.1v-.9h1.3v-1.3h-1.3v-1.3h-1.3v1.3h-1.4v1.3h1.4v.9a2.1,2.1,0,0,0-1.9-.1.8.8,0,0,0-.6.9.7.7,0,0,0,.7.7,1.9,1.9,0,0,0,.8-.3c.1-.1.2,0,.3.1a4,4,0,1,0,5.3,3.7,4.1,4.1,0,0,0-2.5-3.7" transform="translate(-918.6 -113.9)"/>
    <path class="cls-7" d="M934.1,141.9a.4.4,0,0,0,.4-.3.4.4,0,1,0-.8,0,.4.4,0,0,0,.4.3" transform="translate(-918.6 -113.9)"/>
    <path class="cls-7" d="M935.1,141.9a.4.4,0,0,0,.4-.3.4.4,0,0,0-.4-.4c-.2,0-.3.1-.3.4a.3.3,0,0,0,.3.3" transform="translate(-918.6 -113.9)"/>
    <path class="cls-7" d="M936.2,141.9a.3.3,0,0,0,.3-.3c0-.3-.1-.4-.3-.4s-.4.1-.4.4.1.3.4.3" transform="translate(-918.6 -113.9)"/>
    <path class="cls-7" d="M933.6,142.7c.2,0,.4-.1.4-.3a.4.4,0,1,0-.8,0c0,.2.2.3.4.3" transform="translate(-918.6 -113.9)"/>
    <path class="cls-7" d="M934.3,142.4a.3.3,0,0,0,.3.3c.2,0,.4-.1.4-.3a.4.4,0,0,0-.4-.4c-.2,0-.3.2-.3.4" transform="translate(-918.6 -113.9)"/>
    <path class="cls-7" d="M935.3,142.4c0,.2.1.3.4.3a.3.3,0,0,0,.3-.3c0-.2-.1-.4-.3-.4a.4.4,0,0,0-.4.4" transform="translate(-918.6 -113.9)"/>
    <path class="cls-7" d="M936.3,142.4c0,.2.2.3.4.3a.3.3,0,0,0,.3-.3c0-.2-.1-.4-.3-.4a.4.4,0,0,0-.4.4" transform="translate(-918.6 -113.9)"/>
    <path class="cls-7" d="M933.4,143.2c0-.2-.1-.4-.3-.4a.4.4,0,1,0,0,.8c.2,0,.3-.2.3-.4" transform="translate(-918.6 -113.9)"/>
    <path class="cls-7" d="M934.1,142.8a.4.4,0,1,0,.4.4.4.4,0,0,0-.4-.4" transform="translate(-918.6 -113.9)"/>
    <path class="cls-7" d="M935.1,142.8c-.2,0-.3.2-.3.4s.1.4.3.4a.4.4,0,1,0,0-.8" transform="translate(-918.6 -113.9)"/>
    <path class="cls-7" d="M936.5,143.2c0-.2-.1-.4-.3-.4a.4.4,0,0,0,0,.8c.2,0,.3-.2.3-.4" transform="translate(-918.6 -113.9)"/>
    <path class="cls-7" d="M936.8,143.2a.4.4,0,0,0,.4.4c.2,0,.3-.2.3-.4s-.1-.4-.3-.4a.4.4,0,0,0-.4.4" transform="translate(-918.6 -113.9)"/>
    <path class="cls-7" d="M934,144c0-.2-.2-.3-.4-.3s-.4.1-.4.3a.4.4,0,0,0,.8,0" transform="translate(-918.6 -113.9)"/>
    <path class="cls-7" d="M935,144c0-.2-.2-.3-.4-.3a.3.3,0,0,0-.3.3c0,.2.1.4.3.4a.4.4,0,0,0,.4-.4" transform="translate(-918.6 -113.9)"/>
    <path class="cls-7" d="M936,144a.3.3,0,0,0-.3-.3c-.3,0-.4.1-.4.3a.4.4,0,0,0,.4.4c.2,0,.3-.2.3-.4" transform="translate(-918.6 -113.9)"/>
    <path class="cls-7" d="M936.7,143.7c-.2,0-.4.1-.4.3a.4.4,0,0,0,.4.4c.2,0,.3-.2.3-.4a.3.3,0,0,0-.3-.3" transform="translate(-918.6 -113.9)"/>
    <path class="cls-7" d="M934.1,144.5a.4.4,0,0,0-.4.4c0,.2.2.3.4.3s.4-.1.4-.3a.4.4,0,0,0-.4-.4" transform="translate(-918.6 -113.9)"/>
    <path class="cls-7" d="M935.5,144.9a.4.4,0,0,0-.4-.4c-.2,0-.3.1-.3.4a.3.3,0,0,0,.3.3c.2,0,.4-.1.4-.3" transform="translate(-918.6 -113.9)"/>
    <path class="cls-7" d="M936.2,144.5c-.3,0-.4.1-.4.4s.1.3.4.3a.3.3,0,0,0,.3-.3c0-.3-.1-.4-.3-.4" transform="translate(-918.6 -113.9)"/>
    <path class="cls-7" d="M940.2,144.7a1.3,1.3,0,0,0-.9,1.1l-.4.3h-.5a6,6,0,0,0,.9-1.5,1.5,1.5,0,0,1,.6-.5,2.5,2.5,0,0,0,1.6-1.1,6.1,6.1,0,0,1,.7-1.7,2.7,2.7,0,0,0-2.4,2.5c0,.2-.3.4-.4.5a5.1,5.1,0,0,0,.2-1.3c0-.3-.1-.5-.1-.8a1.2,1.2,0,0,0,1.1-.8c.3-1,.5-1.7.8-1.8-1.5,0-2.5.8-2.1,2.6h0a1.9,1.9,0,0,1,.1.8,6.8,6.8,0,0,1-.2,1.4h0a4.9,4.9,0,0,1-1.3,1.8h1a4.1,4.1,0,0,0,1.8-.5c.4-.3.7-1,1.2-1.5s-1.2.2-1.7.4" transform="translate(-918.6 -113.9)"/>
    <path class="cls-7" d="M930.1,144.7a1.3,1.3,0,0,1,.9,1.1l.5.3h.4a6,6,0,0,1-.9-1.5,1.5,1.5,0,0,0-.6-.5,2.5,2.5,0,0,1-1.6-1.1,11.5,11.5,0,0,0-.6-1.7,2.8,2.8,0,0,1,2.3,2.5l.4.5a5.1,5.1,0,0,1-.2-1.3c0-.3.1-.5.1-.8a1,1,0,0,1-1-.8c-.4-1-.6-1.7-.9-1.8,1.5,0,2.5.8,2.1,2.6h0c0,.2-.1.5-.1.8a6.8,6.8,0,0,0,.2,1.4h.1a3.8,3.8,0,0,0,1.2,1.8h-1a3.4,3.4,0,0,1-1.7-.5c-.5-.3-.8-1-1.3-1.5s1.2.2,1.7.4" transform="translate(-918.6 -113.9)"/>
  </g>
  <g>
    <path class="cls-7" d="M1009.4,160.7h-.1a.4.4,0,0,0-.4-.4l-.3.2a1.3,1.3,0,0,1-.9-.5h0c0-.2-.1-.4-.3-.4h-.1l-.2-.2c.1,0,.1-.1.1-.2s-.1-.4-.3-.4-.1-.3-.1-.5.1-.3.1-.4h0c.2,0,.3-.2.3-.4a.4.4,0,0,0-.1-.3v-.2h.2a.3.3,0,0,0,.3-.3v-.2a2,2,0,0,1,.9-.6.3.3,0,0,0,.3.3.4.4,0,0,0,.4-.3h.3c0,.1.1.3.4.3s.2-.1.3-.3l.9.6c-.1,0-.1.1-.1.2s.2.3.4.3h.1v.5a.3.3,0,0,0,.3.3,1.3,1.3,0,0,1,0,1,.4.4,0,0,0-.3.4c0,.1.1.1.1.2v.2h-.1a.4.4,0,0,0-.4.4h0a1.4,1.4,0,0,1-.8.5l-.3-.2a.4.4,0,0,0-.4.4h-.2m1.4-6.2c.1-.2.2-.2.3-.2a1.1,1.1,0,0,0,.8.3.7.7,0,0,0,.7-.7.8.8,0,0,0-.6-.9,2.5,2.5,0,0,0-1.9.1v-.8h1.3V151h-1.3v-1.3h-1.3V151h-1.4v1.3h1.4v.8a2.5,2.5,0,0,0-1.9-.1.9.9,0,0,0-.7.9.8.8,0,0,0,.8.7,1.1,1.1,0,0,0,.8-.3c.1,0,.2,0,.2.2a3.9,3.9,0,1,0,5.4,3.7,3.9,3.9,0,0,0-2.6-3.7" transform="translate(-918.6 -113.9)"/>
    <path class="cls-7" d="M1008.4,156.9c.2,0,.4-.1.4-.3a.4.4,0,1,0-.8,0c0,.2.2.3.4.3" transform="translate(-918.6 -113.9)"/>
    <path class="cls-7" d="M1009.4,156.9c.2,0,.4-.1.4-.3a.4.4,0,0,0-.4-.4c-.2,0-.3.2-.3.4a.3.3,0,0,0,.3.3" transform="translate(-918.6 -113.9)"/>
    <path class="cls-7" d="M1010.5,156.9a.3.3,0,0,0,.3-.3.4.4,0,0,0-.3-.4.4.4,0,0,0-.4.4c0,.2.1.3.4.3" transform="translate(-918.6 -113.9)"/>
    <path class="cls-7" d="M1007.9,157.8a.4.4,0,1,0-.4-.4.4.4,0,0,0,.4.4" transform="translate(-918.6 -113.9)"/>
    <path class="cls-7" d="M1008.6,157.4c0,.2.1.4.3.4a.4.4,0,0,0,0-.8c-.2,0-.3.2-.3.4" transform="translate(-918.6 -113.9)"/>
    <path class="cls-7" d="M1009.6,157.4a.4.4,0,0,0,.4.4c.2,0,.3-.2.3-.4s-.1-.4-.3-.4a.4.4,0,0,0-.4.4" transform="translate(-918.6 -113.9)"/>
    <path class="cls-7" d="M1010.6,157.4a.4.4,0,0,0,.4.4c.2,0,.3-.2.3-.4s-.1-.4-.3-.4a.4.4,0,0,0-.4.4" transform="translate(-918.6 -113.9)"/>
    <path class="cls-7" d="M1007.7,158.3c0-.3-.1-.4-.3-.4a.4.4,0,0,0-.4.4.4.4,0,0,0,.4.3.3.3,0,0,0,.3-.3" transform="translate(-918.6 -113.9)"/>
    <path class="cls-7" d="M1008.4,157.9a.4.4,0,0,0-.4.4.4.4,0,0,0,.8,0,.4.4,0,0,0-.4-.4" transform="translate(-918.6 -113.9)"/>
    <path class="cls-7" d="M1009.4,157.9c-.2,0-.3.1-.3.4a.3.3,0,0,0,.3.3.4.4,0,0,0,.4-.3.4.4,0,0,0-.4-.4" transform="translate(-918.6 -113.9)"/>
    <path class="cls-7" d="M1010.8,158.3c0-.3-.2-.4-.3-.4s-.4.1-.4.4.1.3.4.3a.5.5,0,0,0,.3-.3" transform="translate(-918.6 -113.9)"/>
    <path class="cls-7" d="M1011.1,158.3a.4.4,0,0,0,.4.3.3.3,0,0,0,.3-.3c0-.3-.1-.4-.3-.4a.4.4,0,0,0-.4.4" transform="translate(-918.6 -113.9)"/>
    <path class="cls-7" d="M1008.3,159.1a.4.4,0,1,0-.8,0c0,.2.2.3.4.3s.4-.1.4-.3" transform="translate(-918.6 -113.9)"/>
    <path class="cls-7" d="M1009.3,159.1a.4.4,0,0,0-.4-.4c-.2,0-.3.1-.3.4a.3.3,0,0,0,.3.3c.2,0,.4-.1.4-.3" transform="translate(-918.6 -113.9)"/>
    <path class="cls-7" d="M1010.3,159.1c0-.3-.1-.4-.3-.4s-.4.1-.4.4.1.3.4.3a.3.3,0,0,0,.3-.3" transform="translate(-918.6 -113.9)"/>
    <path class="cls-7" d="M1011,158.7a.4.4,0,0,0-.4.4c0,.2.2.3.4.3a.3.3,0,0,0,.3-.3c0-.3-.1-.4-.3-.4" transform="translate(-918.6 -113.9)"/>
    <path class="cls-7" d="M1008.4,159.5a.4.4,0,0,0-.4.4c0,.2.2.3.4.3s.4-.1.4-.3a.4.4,0,0,0-.4-.4" transform="translate(-918.6 -113.9)"/>
    <path class="cls-7" d="M1009.8,159.9a.4.4,0,0,0-.4-.4c-.2,0-.3.2-.3.4a.3.3,0,0,0,.3.3c.2,0,.4-.1.4-.3" transform="translate(-918.6 -113.9)"/>
    <path class="cls-7" d="M1010.5,159.5a.4.4,0,0,0-.4.4c0,.2.1.3.4.3a.3.3,0,0,0,.3-.3.4.4,0,0,0-.3-.4" transform="translate(-918.6 -113.9)"/>
    <path class="cls-7" d="M1014.5,159.8a1.2,1.2,0,0,0-.9,1,.7.7,0,0,1-.5.3h-.4a3.8,3.8,0,0,0,.9-1.5l.6-.5a2.9,2.9,0,0,0,1.6-1,12.7,12.7,0,0,1,.6-1.8,2.9,2.9,0,0,0-2.3,2.5l-.4.5a5,5,0,0,0,.2-1.2c0-.3-.1-.6-.1-.9a1,1,0,0,0,1-.8c.4-1,.6-1.6.9-1.8-1.5.1-2.5.8-2.1,2.6h0c0,.3.1.6.1.9a5.9,5.9,0,0,1-.2,1.3h-.1a4.1,4.1,0,0,1-1.2,1.9h1a3.4,3.4,0,0,0,1.7-.5c.5-.3.8-1,1.3-1.5l-1.7.5" transform="translate(-918.6 -113.9)"/>
    <path class="cls-7" d="M1004.4,159.8a1.2,1.2,0,0,1,.9,1,.7.7,0,0,0,.5.3h.4a3.8,3.8,0,0,1-.9-1.5l-.6-.5a2.9,2.9,0,0,1-1.6-1,6.7,6.7,0,0,0-.7-1.8,2.8,2.8,0,0,1,2.4,2.5l.4.5a5,5,0,0,1-.2-1.2c0-.3.1-.6.1-.9a1,1,0,0,1-1-.8c-.4-1-.6-1.6-.9-1.8,1.5.1,2.5.8,2.1,2.6h0a2.8,2.8,0,0,0-.1.9,5.9,5.9,0,0,0,.2,1.3h0a5.3,5.3,0,0,0,1.3,1.9h-1a3.4,3.4,0,0,1-1.7-.5c-.5-.3-.8-1-1.3-1.5l1.7.5" transform="translate(-918.6 -113.9)"/>
  </g>
</svg>
