<svg id="LOGO" xmlns="http://www.w3.org/2000/svg" viewBox="0 0 853.6 193">
  <defs>
    <style>
      .cls-1, .cls-2 {
        fill: #a0a0a0;
      }

      .cls-2 {
        font-size: 41.61px;
        font-family: MyriadPro-Regular, Myriad Pro;
        letter-spacing: 0em;
      }

      .cls-3 {
        letter-spacing: 0.01em;
      }
    </style>
  </defs>
  <title>aqeg</title>
  <g>
    <g>
      <path class="cls-1" d="M247.4,194.6a36.1,36.1,0,0,0,15.2,3.7c6.3,0,9.6-2.6,9.6-6.5s-2.9-6-10.2-8.6c-10-3.5-16.6-9.1-16.6-17.9,0-10.4,8.6-18.3,22.9-18.3a35.8,35.8,0,0,1,15.5,3.1l-3,11a30.6,30.6,0,0,0-12.7-2.8c-6,0-8.8,2.7-8.8,5.8s3.4,5.6,11.2,8.6c10.7,3.9,15.8,9.5,15.8,18.1s-7.9,18.8-24.5,18.8c-7,0-13.8-1.8-17.2-3.7Z" transform="translate(-52.2 -88.8)"/>
      <path class="cls-1" d="M318.8,187.9c-7.2-.1-12.8,1.6-12.8,6.9,0,3.5,2.4,5.2,5.4,5.2a7.4,7.4,0,0,0,7.1-5,8.5,8.5,0,0,0,.3-2.3Zm1.6,20.8-.8-4.4h-.3c-2.8,3.5-7.3,5.4-12.6,5.4-8.9,0-14.2-6.5-14.2-13.5,0-11.5,10.3-17,25.8-16.9v-.6c0-2.3-1.2-5.7-8-5.7a24.6,24.6,0,0,0-12.1,3.4l-2.6-8.9c3.1-1.7,9.1-3.8,17.2-3.8,14.6,0,19.3,8.6,19.3,19V198a61.3,61.3,0,0,0,.7,10.7Z" transform="translate(-52.2 -88.8)"/>
      <path class="cls-1" d="M342.5,178.7c0-5.5-.2-10.2-.4-14.1H354l.7,6.1h.2a16.1,16.1,0,0,1,13.6-7c9,0,15.8,5.9,15.8,18.9v26.1H370.6V184.3c0-5.7-2-9.6-6.9-9.6a7.3,7.3,0,0,0-7,5.2,10.6,10.6,0,0,0-.5,3.4v25.4H342.5Z" transform="translate(-52.2 -88.8)"/>
      <path class="cls-1" d="M424.9,148h13.7v38.4c0,17.2-8.3,23.3-21.6,23.3a35.5,35.5,0,0,1-10-1.5l1.5-11a24.3,24.3,0,0,0,7.1,1c5.7,0,9.3-2.6,9.3-12Z" transform="translate(-52.2 -88.8)"/>
      <path class="cls-1" d="M490.7,194.6c0,5.7.2,10.4.3,14.1H479.2l-.7-6.2h-.2a15.9,15.9,0,0,1-13.8,7.2c-8.9,0-15.5-5.6-15.5-19.2V164.6h13.8v23.7c0,6.4,2,10.3,6.8,10.3a7.3,7.3,0,0,0,6.8-4.8,6.8,6.8,0,0,0,.5-2.9V164.6h13.8Z" transform="translate(-52.2 -88.8)"/>
      <path class="cls-1" d="M524.6,187.9c-7.2-.1-12.7,1.6-12.7,6.9,0,3.5,2.3,5.2,5.4,5.2a7.4,7.4,0,0,0,7.1-5,8.6,8.6,0,0,0,.2-2.3Zm1.7,20.8-.8-4.4h-.3c-2.9,3.5-7.4,5.4-12.6,5.4-8.9,0-14.3-6.5-14.3-13.5,0-11.5,10.3-17,25.9-16.9v-.6c0-2.3-1.3-5.7-8-5.7a25,25,0,0,0-12.2,3.4l-2.5-8.9a36.8,36.8,0,0,1,17.1-3.8c14.7,0,19.4,8.6,19.4,19V198a75.5,75.5,0,0,0,.6,10.7Z" transform="translate(-52.2 -88.8)"/>
      <path class="cls-1" d="M548.3,178.7q0-8.2-.3-14.1h11.9l.6,6.1h.3a16.1,16.1,0,0,1,13.6-7c9,0,15.7,5.9,15.7,18.9v26.1H576.4V184.3c0-5.7-1.9-9.6-6.9-9.6a7.2,7.2,0,0,0-6.9,5.2,8.3,8.3,0,0,0-.6,3.4v25.4H548.3Z" transform="translate(-52.2 -88.8)"/>
      <path class="cls-1" d="M647.4,183.3a19.4,19.4,0,0,0-.2-2.4,8.2,8.2,0,0,0-8-6.8c-6.2,0-9.4,5.6-9.4,12.5s3.7,12.2,9.3,12.2a8.1,8.1,0,0,0,8-6.6,15.5,15.5,0,0,0,.3-3.1Zm13.7-38.6v50.8c0,5,.2,10.2.4,13.2H649.3l-.6-6.5h-.2c-2.8,5-8.1,7.5-13.8,7.5-10.4,0-18.8-8.9-18.8-22.6s9.2-23.4,19.7-23.4c5.4,0,9.7,1.8,11.6,4.9h.2V144.7Z" transform="translate(-52.2 -88.8)"/>
      <path class="cls-1" d="M698.3,181.7c0-3.4-1.4-8.9-7.7-8.9s-8.1,5.2-8.5,8.9ZM682.2,191c.5,5.7,6,8.4,12.4,8.4a38.2,38.2,0,0,0,12.2-1.8l1.8,9.3a43.4,43.4,0,0,1-15.9,2.7c-15,0-23.6-8.7-23.6-22.4,0-11.2,7-23.5,22.3-23.5s19.6,11,19.6,21.9a31.1,31.1,0,0,1-.4,5.4Z" transform="translate(-52.2 -88.8)"/>
      <path class="cls-1" d="M750.8,198.3a21.8,21.8,0,0,0,4.7.3c12.5.1,20.6-6.8,20.6-21.3.1-12.6-7.3-19.2-19.1-19.2a26.6,26.6,0,0,0-6.2.5ZM737,148.8a122.6,122.6,0,0,1,18.5-1.3c11.6,0,19,2.1,24.9,6.5s10.3,12.2,10.3,22.9-4.3,19.6-10.1,24.6-16.1,7.8-28,7.8a110.9,110.9,0,0,1-15.6-.9Z" transform="translate(-52.2 -88.8)"/>
      <path class="cls-1" d="M799.1,164.6h13.7v44.1H799.1Zm14.2-12.2c0,3.8-2.9,6.8-7.4,6.8s-7.2-3-7.1-6.8,2.8-6.9,7.2-6.9,7.2,2.9,7.3,6.9" transform="translate(-52.2 -88.8)"/>
      <path class="cls-1" d="M835,186.6c0,7.6,3.1,13.3,9,13.3s8.7-5.3,8.7-13.3-2.5-13.2-8.7-13.2-9,6.7-9,13.2m31.9-.4c0,16.1-11.5,23.5-23.3,23.5s-22.7-8.5-22.7-22.7,9.3-23.3,23.5-23.3,22.5,9.2,22.5,22.5" transform="translate(-52.2 -88.8)"/>
      <path class="cls-1" d="M874.8,196.7a27.3,27.3,0,0,0,11.8,3.3c4.2,0,5.9-1.4,5.9-3.6s-1.4-3.4-6.5-5.1c-9.1-3.1-12.6-8-12.5-13.2,0-8.2,7-14.4,17.9-14.4a28.8,28.8,0,0,1,12.4,2.5l-2.4,9.4a23.1,23.1,0,0,0-9.6-2.5c-3.3,0-5.2,1.4-5.2,3.6s1.7,3.2,7.1,5.1c8.4,2.8,11.9,7.1,12,13.6,0,8.2-6.5,14.2-19.1,14.2a30.8,30.8,0,0,1-14.2-3.1Z" transform="translate(-52.2 -88.8)"/>
      <rect class="cls-1" x="163.1" y="0.3" width="6.2" height="144.53"/>
      <path class="cls-1" d="M165,224.3c-.5,1.2-.7,2.5-1.3,3.8a8.6,8.6,0,0,1-6.6,4.6c1.4-2.4,3.4-4.6,4.9-7.2a48.4,48.4,0,0,0,3.7-8.7c2.4-2.7,5.6-3.7,8.6-5.2a22,22,0,0,0,12-13.8c.9-3,.7-6.5,2.4-9.6.7-1.1,1.7-2,2.4-3.3-5.4.2-9.1,2.3-12.6,4.4-4.5,3.7-8.3,8.5-9.3,15.7-.3,2.2-.1,5.3-1.9,6.2a62.4,62.4,0,0,0,.3-16.7,20.8,20.8,0,0,0,9.1-10.1c.8-2,.9-4.1,1.6-6.3a24.8,24.8,0,0,1,6.1-10.3,19.6,19.6,0,0,0-21.6,13.7,23.1,23.1,0,0,0-.8,4.3c-.2,3.3.7,5.7,1.3,8,1.9,7.2.9,15.1-1.1,21.5a40.4,40.4,0,0,1-9.1,15.7,41.9,41.9,0,0,1-35.4,13.5c-14.7-1.4-24.9-8.5-31.4-18.2a42,42,0,0,1-6.7-29.5c.5-3.2,2-6.7,1.7-10.8a20.4,20.4,0,0,0-7.2-13.6A19.5,19.5,0,0,0,58.7,168c.8,1.1,1.7,1.9,2.4,2.9a23.2,23.2,0,0,1,3.6,7.4c.5,1.4.6,2.8,1.1,4.4a18.7,18.7,0,0,0,6.7,9.9c1.1.8,3,1.6,3.3,2.4s-.3,3-.4,4.3a45.7,45.7,0,0,0,.8,12.4c-2.1-1.4-1.7-4.4-2-6.4a29.2,29.2,0,0,0-2-6.5c-3.5-7.5-10.1-12.5-20-13.6.8,1.6,1.6,2.2,2.3,3.5,1.9,3.3,1.6,7.1,2.7,10.3a21.1,21.1,0,0,0,12.6,13.3c2.5,1.1,6.8,2.9,8,5.1s1,3,1.7,4.4a45.1,45.1,0,0,0,4.4,7.8c.9,1.2,2,2.2,2.4,3.4a8.3,8.3,0,0,1-5.9-3.5c-1.2-1.8-1.5-4.2-2.6-6a18,18,0,0,0-2.8-4,19.9,19.9,0,0,0-3.4-2.9c-5.4-3.1-14.8-3.3-19.3,1.2,4.4,2.2,8.2,4.5,10.9,8.3a20.8,20.8,0,0,0,1.9,2.9c4.6,5.4,13.9,10.2,23.3,6.2a52,52,0,0,0,14.1,9.5,43.2,43.2,0,0,0,19.3,4c14.7-.6,25.4-6.2,33.3-13.9a19.9,19.9,0,0,0,10.3,1.4c5.4-.8,10.9-4.4,13.4-8.1.9-1.2,1.4-2.4,2.2-3.4a22.1,22.1,0,0,1,6.3-5.5c1.2-.7,2.7-.9,3.8-2.1a15.7,15.7,0,0,0-9.1-3.3,17.3,17.3,0,0,0-17,10.5" transform="translate(-52.2 -88.8)"/>
      <path class="cls-1" d="M111.7,218.3a2.8,2.8,0,1,0-2.7,2.8,2.8,2.8,0,0,0,2.7-2.8" transform="translate(-52.2 -88.8)"/>
      <path class="cls-1" d="M118.4,218.3a2.8,2.8,0,1,0-2.8,2.8,2.8,2.8,0,0,0,2.8-2.8" transform="translate(-52.2 -88.8)"/>
      <path class="cls-1" d="M124.7,218.3a2.8,2.8,0,1,0-2.7,2.8,2.8,2.8,0,0,0,2.7-2.8" transform="translate(-52.2 -88.8)"/>
      <path class="cls-1" d="M131.1,218.3a2.9,2.9,0,0,0-2.8-2.8,2.8,2.8,0,0,0,0,5.6,2.9,2.9,0,0,0,2.8-2.8" transform="translate(-52.2 -88.8)"/>
      <path class="cls-1" d="M134.7,215.5a2.8,2.8,0,1,0,2.7,2.8,2.8,2.8,0,0,0-2.7-2.8" transform="translate(-52.2 -88.8)"/>
      <path class="cls-1" d="M105.4,207a2.8,2.8,0,1,0-2.8,2.7,2.8,2.8,0,0,0,2.8-2.7" transform="translate(-52.2 -88.8)"/>
      <path class="cls-1" d="M106.2,207a2.8,2.8,0,1,0,2.8-2.8,2.7,2.7,0,0,0-2.8,2.8" transform="translate(-52.2 -88.8)"/>
      <path class="cls-1" d="M118.4,207a2.8,2.8,0,1,0-5.5,0,2.8,2.8,0,0,0,5.5,0" transform="translate(-52.2 -88.8)"/>
      <path class="cls-1" d="M124.7,207a2.8,2.8,0,1,0-2.7,2.7,2.7,2.7,0,0,0,2.7-2.7" transform="translate(-52.2 -88.8)"/>
      <path class="cls-1" d="M131.1,207a2.8,2.8,0,0,0-2.8-2.8,2.8,2.8,0,0,0,0,5.5,2.8,2.8,0,0,0,2.8-2.7" transform="translate(-52.2 -88.8)"/>
      <path class="cls-1" d="M131.9,207a2.8,2.8,0,1,0,2.8-2.8,2.7,2.7,0,0,0-2.8,2.8" transform="translate(-52.2 -88.8)"/>
      <path class="cls-1" d="M141,204.2a2.8,2.8,0,1,0,2.8,2.8,2.8,2.8,0,0,0-2.8-2.8" transform="translate(-52.2 -88.8)"/>
      <path class="cls-1" d="M102.6,198.8a2.8,2.8,0,1,0-2.8-2.8,2.9,2.9,0,0,0,2.8,2.8" transform="translate(-52.2 -88.8)"/>
      <path class="cls-1" d="M106.2,196a2.8,2.8,0,1,0,2.8-2.8,2.8,2.8,0,0,0-2.8,2.8" transform="translate(-52.2 -88.8)"/>
      <path class="cls-1" d="M115.6,193.2a2.8,2.8,0,1,0,2.8,2.8,2.8,2.8,0,0,0-2.8-2.8" transform="translate(-52.2 -88.8)"/>
      <path class="cls-1" d="M122,193.2a2.8,2.8,0,1,0,2.7,2.8,2.8,2.8,0,0,0-2.7-2.8" transform="translate(-52.2 -88.8)"/>
      <path class="cls-1" d="M128.3,193.2a2.8,2.8,0,0,0,0,5.6,2.8,2.8,0,0,0,0-5.6" transform="translate(-52.2 -88.8)"/>
      <path class="cls-1" d="M131.9,196a2.8,2.8,0,1,0,2.8-2.8,2.8,2.8,0,0,0-2.8,2.8" transform="translate(-52.2 -88.8)"/>
      <path class="cls-1" d="M138.2,196a2.8,2.8,0,1,0,2.8-2.8,2.9,2.9,0,0,0-2.8,2.8" transform="translate(-52.2 -88.8)"/>
      <path class="cls-1" d="M115.6,187.8a2.8,2.8,0,1,0,0-5.5,2.8,2.8,0,0,0,0,5.5" transform="translate(-52.2 -88.8)"/>
      <path class="cls-1" d="M122,187.8a2.8,2.8,0,1,0-2.8-2.8,2.7,2.7,0,0,0,2.8,2.8" transform="translate(-52.2 -88.8)"/>
      <path class="cls-1" d="M128.3,187.8a2.8,2.8,0,1,0,0-5.5,2.8,2.8,0,0,0,0,5.5" transform="translate(-52.2 -88.8)"/>
      <path class="cls-1" d="M112.3,221.1a2.8,2.8,0,0,0,0,5.5,2.8,2.8,0,1,0,0-5.5" transform="translate(-52.2 -88.8)"/>
      <path class="cls-1" d="M118.7,221.1a2.8,2.8,0,1,0,0,5.5,2.8,2.8,0,0,0,0-5.5" transform="translate(-52.2 -88.8)"/>
      <path class="cls-1" d="M125,221.1a2.8,2.8,0,0,0,0,5.5,2.8,2.8,0,1,0,0-5.5" transform="translate(-52.2 -88.8)"/>
      <path class="cls-1" d="M131.4,221.1a2.8,2.8,0,1,0,2.7,2.7,2.7,2.7,0,0,0-2.7-2.7" transform="translate(-52.2 -88.8)"/>
      <path class="cls-1" d="M108.4,212.7a2.8,2.8,0,1,0-2.7,2.7,2.7,2.7,0,0,0,2.7-2.7" transform="translate(-52.2 -88.8)"/>
      <path class="cls-1" d="M109.6,212.7a2.8,2.8,0,0,0,5.5,0,2.8,2.8,0,1,0-5.5,0" transform="translate(-52.2 -88.8)"/>
      <path class="cls-1" d="M118.7,215.4a2.8,2.8,0,0,0,0-5.5,2.8,2.8,0,1,0,0,5.5" transform="translate(-52.2 -88.8)"/>
      <path class="cls-1" d="M125,215.4a2.8,2.8,0,1,0-2.7-2.7,2.7,2.7,0,0,0,2.7,2.7" transform="translate(-52.2 -88.8)"/>
      <path class="cls-1" d="M131.4,215.4a2.8,2.8,0,0,0,0-5.5,2.8,2.8,0,1,0,0,5.5" transform="translate(-52.2 -88.8)"/>
      <path class="cls-1" d="M137.7,209.9a2.8,2.8,0,1,0,2.8,2.8,2.8,2.8,0,0,0-2.8-2.8" transform="translate(-52.2 -88.8)"/>
      <path class="cls-1" d="M102.1,201.6a2.8,2.8,0,0,0-2.8-2.7,2.8,2.8,0,0,0,0,5.5,2.8,2.8,0,0,0,2.8-2.8" transform="translate(-52.2 -88.8)"/>
      <path class="cls-1" d="M105.7,198.9a2.8,2.8,0,1,0,2.7,2.7,2.7,2.7,0,0,0-2.7-2.7" transform="translate(-52.2 -88.8)"/>
      <path class="cls-1" d="M109.6,201.6a2.8,2.8,0,1,0,2.7-2.7,2.7,2.7,0,0,0-2.7,2.7" transform="translate(-52.2 -88.8)"/>
      <path class="cls-1" d="M115.9,201.6a2.8,2.8,0,0,0,2.8,2.8,2.8,2.8,0,0,0,0-5.5,2.8,2.8,0,0,0-2.8,2.7" transform="translate(-52.2 -88.8)"/>
      <path class="cls-1" d="M122.3,201.6a2.8,2.8,0,1,0,2.7-2.7,2.7,2.7,0,0,0-2.7,2.7" transform="translate(-52.2 -88.8)"/>
      <path class="cls-1" d="M131.4,198.9a2.8,2.8,0,1,0,2.7,2.7,2.7,2.7,0,0,0-2.7-2.7" transform="translate(-52.2 -88.8)"/>
      <path class="cls-1" d="M140.5,201.6a2.8,2.8,0,1,0-2.8,2.8,2.8,2.8,0,0,0,2.8-2.8" transform="translate(-52.2 -88.8)"/>
      <path class="cls-1" d="M141.6,201.6a2.8,2.8,0,1,0,5.5,0,2.8,2.8,0,0,0-5.5,0" transform="translate(-52.2 -88.8)"/>
      <path class="cls-1" d="M102.9,190.5a2.8,2.8,0,1,0,5.5,0,2.8,2.8,0,0,0-5.5,0" transform="translate(-52.2 -88.8)"/>
      <path class="cls-1" d="M112.3,193.3a2.8,2.8,0,1,0,0-5.5,2.8,2.8,0,0,0,0,5.5" transform="translate(-52.2 -88.8)"/>
      <path class="cls-1" d="M115.9,190.5a2.8,2.8,0,0,0,2.8,2.8,2.8,2.8,0,0,0,0-5.5,2.8,2.8,0,0,0-2.8,2.7" transform="translate(-52.2 -88.8)"/>
      <path class="cls-1" d="M122.3,190.5a2.8,2.8,0,1,0,2.7-2.7,2.7,2.7,0,0,0-2.7,2.7" transform="translate(-52.2 -88.8)"/>
      <path class="cls-1" d="M128.6,190.5a2.8,2.8,0,1,0,5.5,0,2.8,2.8,0,0,0-5.5,0" transform="translate(-52.2 -88.8)"/>
      <path class="cls-1" d="M137.7,193.3a2.8,2.8,0,1,0-2.8-2.8,2.8,2.8,0,0,0,2.8,2.8" transform="translate(-52.2 -88.8)"/>
      <path class="cls-1" d="M105.3,168.8a31,31,0,0,1-3.8.7c-8.6,2.2-13.4,8.6-16.9,15.8A39,39,0,0,0,81,200.4a41.1,41.1,0,0,0,5.7,23,35.8,35.8,0,0,0,9.5,10.9,40.9,40.9,0,0,0,22.1,8.7,41.3,41.3,0,0,0,30.5-10.1,39.2,39.2,0,0,0,13.6-27.3,42.8,42.8,0,0,0-2.4-17.4c-3.2-8.7-8.4-16-17.4-18.7a36.7,36.7,0,0,1-4.3-.9c-1.7-.7-2.2-2.9-1.6-4.5a3.9,3.9,0,0,1,3.9-2.1c1.5.1,2.3,2.1,3.4,2.9,5.4,3.5,12.6-1.4,11.4-7.6s-8.5-10-15.2-9.9a21.7,21.7,0,0,0-11.4,3.6v-7.7h14.8V128.2H128.8V113.1H114.1v15.1H99.2v15.1h14.9v7.3c-7.2-5.5-18.8-2.9-23.3,2.2a11.1,11.1,0,0,0-2.6,5.2,7.4,7.4,0,0,0,11,7.3c1.6-.9,2.5-2.7,3.9-3,4.3-.9,5.8,5.2,2.2,6.5m29.9,56.3h0Zm-13.5-57.5,1.7,4a3.3,3.3,0,0,0-1.4-.4,2.8,2.8,0,0,0-2,.8ZM109,187.8a2.7,2.7,0,0,0,2.7-2.8,2.8,2.8,0,0,0-1.3-2.4l1.2-.5h.7a2.9,2.9,0,0,0,2.8-2.3l.8-.7v.2a2.9,2.9,0,0,0,2.8,2.8,2.8,2.8,0,0,0,0-5.6h-.4l.9-2.5a2.8,2.8,0,0,0,1.2,2.1,2.8,2.8,0,0,0,1.6.5,2.7,2.7,0,0,0,1.5-.5,2.8,2.8,0,0,0,1.1-1.5l.8,1.9H125a2.8,2.8,0,1,0,2.8,2.8v-.2l.9.8a2.7,2.7,0,0,0,2.7,2.2h.6l1.3.5a2.9,2.9,0,0,0-1.4,2.4,2.8,2.8,0,1,0,5.5,0,2.7,2.7,0,0,0-.3-1.2l1.3.2a3.6,3.6,0,0,0-.2,1,2.8,2.8,0,0,0,2.8,2.8,2.6,2.6,0,0,0,1.9-.8h.1a8.6,8.6,0,0,1,.7,1h-.1a2.7,2.7,0,0,0-2,2.6,2.7,2.7,0,0,0,2.8,2.8l1-.2.8-.3.3.7h-.1a2.8,2.8,0,0,0-1.9,2.6,2.9,2.9,0,0,0,2.8,2.8h.5c.1,1.2.2,2.4.2,3.7v1.7h-.7a2.8,2.8,0,0,0-2.8,2.8,2.7,2.7,0,0,0,2.5,2.7h0l-.3,1.1a3.1,3.1,0,0,0-2.1-.9h-.1a2.8,2.8,0,0,0,0,5.5h.1l-1,1.8a2.2,2.2,0,0,0-.7-.9,2.6,2.6,0,0,0-1.9-.8,2.8,2.8,0,0,0-1.9,4.8,2.7,2.7,0,0,0,1.3.7l-.8.8h0a3.2,3.2,0,0,0-1.9-.7,2.8,2.8,0,0,0-2.5,4,29.4,29.4,0,0,1-5.1,2.3h.1a2.6,2.6,0,0,0-1.9-.8,2.8,2.8,0,0,0-2.6,1.9h-1.1a2.7,2.7,0,0,0-2.6-2,2.8,2.8,0,0,0-2.7,2.1h-1a2.8,2.8,0,0,0-2.7-2,2.9,2.9,0,0,0-2,.9,22,22,0,0,1-5.4-2.5,3.7,3.7,0,0,0,.2-1.2,2.7,2.7,0,0,0-2.7-2.7,2.6,2.6,0,0,0-1.9.7l-.7-.8a2.7,2.7,0,0,0,2.3-2.7,2.8,2.8,0,0,0-5.4-1l-1.2-1.9h.5a2.8,2.8,0,1,0,0-5.5,2.7,2.7,0,0,0-2.4,1.4c-.1-.5-.3-1.1-.4-1.6a2.8,2.8,0,0,0-.3-5.5h-.7v-1.8c0-1.3.1-2.5.2-3.8h.5A2.8,2.8,0,0,0,99,196a2.7,2.7,0,0,0-1.9-2.6l.3-.9a2.7,2.7,0,0,0,1.9.8,2.8,2.8,0,0,0,.7-5.5l.6-.9a2.5,2.5,0,0,0,2,.9,2.8,2.8,0,0,0,2.8-2.8,3.6,3.6,0,0,0-.2-1l1.3-.2a2.7,2.7,0,0,0-.3,1.2A2.7,2.7,0,0,0,109,187.8Z" transform="translate(-52.2 -88.8)"/>
      <text class="cls-2" transform="translate(191.6 34.8) scale(0.98 1)">ALBE<tspan class="cls-3" x="89" y="0">R</tspan><tspan x="111.7" y="0">GUE</tspan></text>
    </g>
    <path class="cls-1" d="M259.1,259.3c0-3.9-1.8-7.1-5.1-7.1s-5.2,3.2-5.2,7.2,1.9,7.1,5.2,7.1,5.1-3,5.1-7.2m3.8,14.3a69.2,69.2,0,0,1-8.4-3,8,8,0,0,0-1.5-.3c-4.8-.3-9.2-3.8-9.2-10.7s4-11.2,10.3-11.2,10.1,4.9,10.1,10.7-2.3,8.2-5.1,9.5h0c1.7.5,3.5.9,5.1,1.2Z" transform="translate(-52.2 -88.8)"/>
    <path class="cls-1" d="M272.1,248.8V261c0,3.6,1.4,5.5,3.8,5.5s3.9-1.8,3.9-5.5V248.8h4.8v11.9c0,6.5-3.3,9.6-8.8,9.6s-8.5-2.9-8.5-9.7V248.8Z" transform="translate(-52.2 -88.8)"/>
    <rect class="cls-1" x="236.6" y="160" width="4.8" height="21.21"/>
    <polygon class="cls-1" points="249.7 164 244 164 244 160 260.3 160 260.3 164 254.5 164 254.5 181.2 249.7 181.2 249.7 164"/>
    <path class="cls-1" d="M318.2,259.4c0,4.2,1.9,7.1,5.2,7.1s5-3.1,5-7.2-1.8-7.1-5.1-7.1-5.1,3.1-5.1,7.2m15.3-.3c0,7-4.2,11.2-10.4,11.2s-10-4.7-10-10.8,4.1-11.1,10.3-11.1,10.1,4.9,10.1,10.7" transform="translate(-52.2 -88.8)"/>
    <rect class="cls-1" x="292" y="157.6" width="1.4" height="31.46"/>
    <polygon class="cls-1" points="315.4 170.7 307 170.7 307 180 316.4 180 316.4 181.2 305.4 181.2 305.4 160 315.9 160 315.9 161.3 307 161.3 307 169.4 315.4 169.4 315.4 170.7"/>
    <path class="cls-1" d="M386.7,269.2a13.1,13.1,0,0,1-5.8,1.1c-5.1,0-10-3.3-10-10.8s4-11,10.7-11a11.9,11.9,0,0,1,5,.9l-.5,1.2a10.7,10.7,0,0,0-4.4-.9c-5.7,0-9.2,3.7-9.2,9.8s3.2,9.5,8.9,9.5a11.4,11.4,0,0,0,4.8-1Z" transform="translate(-52.2 -88.8)"/>
    <path class="cls-1" d="M391.7,248.8v12.8c0,5.4,2.5,7.5,5.7,7.5s5.9-2.3,5.9-7.5V248.8h1.5v12.6c0,6.6-3.5,8.9-7.5,8.9s-7.1-2.1-7.1-8.6V248.8Z" transform="translate(-52.2 -88.8)"/>
    <path class="cls-1" d="M419.2,261.3l-2.6-7.1c-.5-1.5-.8-2.5-1.1-3.7h0c-.4,1.2-.7,2.3-1.1,3.7l-2.7,7.1Zm-7.9,1.2-2.6,7.5h-1.6l7.7-21.2h1.5l7.6,21.2h-1.5l-2.7-7.5Z" transform="translate(-52.2 -88.8)"/>
    <path class="cls-1" d="M428.7,268.7l3.4.2c6.8,0,10.2-3.8,10.2-10s-3-9-9.8-9a18.7,18.7,0,0,0-3.8.3Zm-1.6-19.6a31.2,31.2,0,0,1,5.5-.5c3.9,0,6.8,1.1,8.5,2.9a10.3,10.3,0,0,1,2.7,7.4,11.7,11.7,0,0,1-2.8,8c-1.8,2-5,3.2-9.1,3.2h-4.8Z" transform="translate(-52.2 -88.8)"/>
    <path class="cls-1" d="M455.5,269.1c5,0,7.8-4.6,7.8-9.9s-2.4-9.5-7.7-9.5-7.9,4.9-7.9,9.8,2.8,9.6,7.8,9.6Zm-.1,1.2c-5.2,0-9.3-4.1-9.3-10.7s4.2-11.2,9.6-11.2,9.2,4.2,9.2,10.7-4.6,11.2-9.5,11.2Z" transform="translate(-52.2 -88.8)"/>
    <path class="cls-1" d="M470.2,259h3.3c3.3,0,5.4-1.8,5.4-4.6s-2.4-4.6-5.7-4.6a15.3,15.3,0,0,0-3,.3Zm-1.6-9.9a24,24,0,0,1,4.6-.5c2.8,0,4.6.6,5.8,1.8a5.3,5.3,0,0,1,1.4,3.7,5.7,5.7,0,0,1-4.1,5.6h0c1.7.6,2.8,2.2,3.3,4.5a35.1,35.1,0,0,0,1.5,5.8h-1.5a27.4,27.4,0,0,1-1.4-5.2c-.6-3-1.9-4.4-4.7-4.5h-3.3V270h-1.6Z" transform="translate(-52.2 -88.8)"/>
    <rect class="cls-1" x="163.1" y="144.8" width="6.2" height="48.21"/>
  </g>
</svg>
