<svg id="Capa_1" data-name="Capa 1" xmlns="http://www.w3.org/2000/svg" viewBox="0 0 197.4 44">
  <defs>
    <style>
      .cls-1, .cls-3 {
        fill: #293f89;
      }

      .cls-1 {
        fill-rule: evenodd;
      }

      .cls-2 {
        fill: #b1132f;
      }
    </style>
  </defs>
  <title>cch</title>
  <path class="cls-1" d="M1538.1-843h-.4a.9.9,0,0,0-.9-.9.9.9,0,0,0-.9.6,9.2,9.2,0,0,1-2.4-1.3.8.8,0,0,0,.1-.4.9.9,0,0,0-.9-1h-.3a2.1,2.1,0,0,1-.4-.6.7.7,0,0,0,.3-.6.9.9,0,0,0-.9-1,5.7,5.7,0,0,1-.1-1.3,4.9,4.9,0,0,1,.1-1.2h0a.9.9,0,0,0,.9-.9.9.9,0,0,0-.4-.8l.4-.6h.4a.9.9,0,0,0,.9-.9,1.4,1.4,0,0,0-.2-.6,6.8,6.8,0,0,1,2.5-1.4.9.9,0,0,0,.9.7.9.9,0,0,0,.9-.9h.9a.1.1,0,0,0-.1.1.9.9,0,0,0,1,.9.9.9,0,0,0,.9-.6,5.8,5.8,0,0,1,2.3,1.3,1.3,1.3,0,0,0-.1.6.9.9,0,0,0,1,.9h.3l.4.6a.8.8,0,0,0-.3.7.9.9,0,0,0,.8.9,4.9,4.9,0,0,1,.1,1.2,5.7,5.7,0,0,1-.1,1.3,1,1,0,0,0-.8,1,1.4,1.4,0,0,0,.2.6,2.1,2.1,0,0,1-.4.6h-.2a.9.9,0,0,0-1,1,.8.8,0,0,0,.1.4,10.5,10.5,0,0,1-2.3,1.3,1,1,0,0,0-.9-.6,1,1,0,0,0-1,.9h-.4m3.8-16.5a.6.6,0,0,1,.8-.4,3.1,3.1,0,0,0,2,.8,2,2,0,0,0,2-1.8,2.4,2.4,0,0,0-1.8-2.5,6,6,0,0,0-5.1.4v-2.3h3.5v-3.4h-3.5v-3.5h-3.4v3.5h-3.6v3.4h3.6v2.2a6.1,6.1,0,0,0-5-.3,2.4,2.4,0,0,0-1.7,2.5,2,2,0,0,0,2,1.8,3.1,3.1,0,0,0,2-.8.7.7,0,0,1,.8.4,10.6,10.6,0,0,0-6.8,9.8,10.5,10.5,0,0,0,10.5,10.4,10.4,10.4,0,0,0,10.4-10.4,10.5,10.5,0,0,0-6.7-9.8" transform="translate(-1519.6 877.8)"/>
  <path class="cls-1" d="M1535.4-853a.9.9,0,0,0,.9-.9.9.9,0,0,0-.9-1,.9.9,0,0,0-1,1,.9.9,0,0,0,1,.9" transform="translate(-1519.6 877.8)"/>
  <path class="cls-1" d="M1538.1-853a.9.9,0,0,0,1-.9.9.9,0,0,0-1-1,.9.9,0,0,0-1,1,.9.9,0,0,0,1,.9" transform="translate(-1519.6 877.8)"/>
  <path class="cls-1" d="M1540.9-853a.9.9,0,0,0,.9-.9.9.9,0,0,0-.9-1,.9.9,0,0,0-1,1,.9.9,0,0,0,1,.9" transform="translate(-1519.6 877.8)"/>
  <path class="cls-1" d="M1534.1-850.8a.9.9,0,0,0,.9-.9.9.9,0,0,0-.9-1,.9.9,0,0,0-1,1,.9.9,0,0,0,1,.9" transform="translate(-1519.6 877.8)"/>
  <path class="cls-1" d="M1535.8-851.7a.9.9,0,0,0,1,.9.9.9,0,0,0,.9-.9.9.9,0,0,0-.9-1,.9.9,0,0,0-1,1" transform="translate(-1519.6 877.8)"/>
  <path class="cls-1" d="M1538.5-851.7a.9.9,0,0,0,1,.9.9.9,0,0,0,.9-.9.9.9,0,0,0-.9-1,.9.9,0,0,0-1,1" transform="translate(-1519.6 877.8)"/>
  <path class="cls-1" d="M1541.2-851.7a1,1,0,0,0,1.1.9.9.9,0,0,0,.9-.9.9.9,0,0,0-.9-1,1,1,0,0,0-1.1,1" transform="translate(-1519.6 877.8)"/>
  <path class="cls-1" d="M1533.6-849.5a.9.9,0,0,0-.9-1,.9.9,0,0,0-1,1,.9.9,0,0,0,1,1,.9.9,0,0,0,.9-1" transform="translate(-1519.6 877.8)"/>
  <path class="cls-1" d="M1535.4-850.5a.9.9,0,0,0-1,1,.9.9,0,0,0,1,1,.9.9,0,0,0,.9-1,.9.9,0,0,0-.9-1" transform="translate(-1519.6 877.8)"/>
  <path class="cls-1" d="M1538.1-850.5a.9.9,0,0,0-1,1,.9.9,0,0,0,1,1,.9.9,0,0,0,1-1,.9.9,0,0,0-1-1" transform="translate(-1519.6 877.8)"/>
  <path class="cls-1" d="M1541.8-849.5a.9.9,0,0,0-.9-1,.9.9,0,0,0-1,1,.9.9,0,0,0,1,1,.9.9,0,0,0,.9-1" transform="translate(-1519.6 877.8)"/>
  <path class="cls-1" d="M1542.6-849.5a.9.9,0,0,0,1,1,.9.9,0,0,0,.9-1,.9.9,0,0,0-.9-1,.9.9,0,0,0-1,1" transform="translate(-1519.6 877.8)"/>
  <path class="cls-1" d="M1535-847.3a.9.9,0,0,0-.9-1,.9.9,0,0,0-1,1,.9.9,0,0,0,1,.9.9.9,0,0,0,.9-.9" transform="translate(-1519.6 877.8)"/>
  <path class="cls-1" d="M1537.7-847.3a.9.9,0,0,0-.9-1,.9.9,0,0,0-1,1,.9.9,0,0,0,1,.9.9.9,0,0,0,.9-.9" transform="translate(-1519.6 877.8)"/>
  <path class="cls-1" d="M1540.4-847.3a.9.9,0,0,0-.9-1,.9.9,0,0,0-1,1,.9.9,0,0,0,1,.9.9.9,0,0,0,.9-.9" transform="translate(-1519.6 877.8)"/>
  <path class="cls-1" d="M1542.3-848.3a1,1,0,0,0-1.1,1,1,1,0,0,0,1.1.9.9.9,0,0,0,.9-.9.9.9,0,0,0-.9-1" transform="translate(-1519.6 877.8)"/>
  <path class="cls-1" d="M1535.4-846.1a.9.9,0,0,0-1,1,.9.9,0,0,0,1,.9.9.9,0,0,0,.9-.9.9.9,0,0,0-.9-1" transform="translate(-1519.6 877.8)"/>
  <path class="cls-1" d="M1539.1-845.1a.9.9,0,0,0-1-1,.9.9,0,0,0-1,1,.9.9,0,0,0,1,.9.9.9,0,0,0,1-.9" transform="translate(-1519.6 877.8)"/>
  <path class="cls-1" d="M1540.9-846.1a.9.9,0,0,0-1,1,.9.9,0,0,0,1,.9.9.9,0,0,0,.9-.9.9.9,0,0,0-.9-1" transform="translate(-1519.6 877.8)"/>
  <path class="cls-1" d="M1551.5-845.5a3.4,3.4,0,0,0-2.3,2.9,3.7,3.7,0,0,1-1.2.7,3.9,3.9,0,0,1-1.3.2,11.8,11.8,0,0,0,2.5-4,8.3,8.3,0,0,1,1.7-1.2c2.2-.7,3.4-1.6,4-2.8s1-3.3,1.8-4.6c-2.5.4-5.3,2.2-6.1,6.7a4,4,0,0,1-1.2,1.1,11.3,11.3,0,0,0,.5-3.2,15,15,0,0,0-.2-2.2c1.1,0,2.1-.6,2.8-2.2s1.5-4.3,2.2-4.8c-3.9.2-6.7,2.1-5.5,6.9h0a16.4,16.4,0,0,1,.2,2.3,10.3,10.3,0,0,1-.6,3.5h0a11.3,11.3,0,0,1-3.2,4.8,7.5,7.5,0,0,0,2.6,0,13.5,13.5,0,0,0,4.6-1.4c1.2-.8,1.9-2.5,3.2-4-1.9.8-3.1.7-4.5,1.2" transform="translate(-1519.6 877.8)"/>
  <path class="cls-1" d="M1524.9-845.5a3.7,3.7,0,0,1,2.3,2.9c.1.3,1,.6,1.2.7a3.9,3.9,0,0,0,1.3.2,11.8,11.8,0,0,1-2.5-4l-1.7-1.2c-2.2-.7-3.4-1.6-4.1-2.8s-1-3.3-1.8-4.6c2.5.4,5.4,2.2,6.1,6.7a4.2,4.2,0,0,0,1.3,1.1,11.3,11.3,0,0,1-.5-3.2,15,15,0,0,1,.2-2.2c-1.1,0-2.1-.6-2.8-2.2s-1.6-4.3-2.2-4.8c3.9.2,6.7,2.1,5.5,6.9h0a16.4,16.4,0,0,0-.2,2.3,13.4,13.4,0,0,0,.5,3.5h0a.1.1,0,0,1,.1.1,10.4,10.4,0,0,0,3.2,4.8,8.1,8.1,0,0,1-2.7,0,12.4,12.4,0,0,1-4.5-1.4c-1.2-.8-1.9-2.5-3.2-4,1.8.8,3.1.7,4.5,1.2" transform="translate(-1519.6 877.8)"/>
  <path class="cls-2" d="M1569.8-836.7l-1.3.2a2.3,2.3,0,0,1-2.5-2.4,2.5,2.5,0,0,1,2.6-2.6,2.9,2.9,0,0,1,1.2.2l-.2.9-.9-.2a1.4,1.4,0,0,0-1.5,1.6,1.4,1.4,0,0,0,1.5,1.6l.9-.2Z" transform="translate(-1519.6 877.8)"/>
  <polygon class="cls-2" points="52 36.4 52 38.3 53.8 38.3 53.8 36.4 54.9 36.4 54.9 41.3 53.8 41.3 53.8 39.2 52 39.2 52 41.3 50.9 41.3 50.9 36.4 52 36.4"/>
  <rect class="cls-2" x="55.8" y="36.4" width="1.1" height="4.83"/>
  <path class="cls-2" d="M1581-836.7a2.9,2.9,0,0,1-1.2.2,2.3,2.3,0,0,1-2.5-2.4,2.4,2.4,0,0,1,2.6-2.6,2.9,2.9,0,0,1,1.2.2l-.2.9-.9-.2a1.5,1.5,0,0,0-1.6,1.6,1.5,1.5,0,0,0,1.6,1.6l.9-.2Z" transform="translate(-1519.6 877.8)"/>
  <polygon class="cls-2" points="62.1 36.4 63.2 36.4 63.2 40.3 65.1 40.3 65.1 41.3 62.1 41.3 62.1 36.4"/>
  <path class="cls-2" d="M1587.8-838.7l-.3-1a2.9,2.9,0,0,1-.2-.9h0l-.3.9-.3,1Zm-1.2.9-.4,1.2h-1.1l1.5-4.8h1.4l1.5,4.8h-1.2l-.3-1.2Z" transform="translate(-1519.6 877.8)"/>
  <path class="cls-2" d="M1590.6-836.6v-2l-1.5-2.8h1.2l.5,1.1a4.2,4.2,0,0,1,.4,1h0l.4-1,.5-1.1h1.2l-1.6,2.8v2Z" transform="translate(-1519.6 877.8)"/>
  <path class="cls-2" d="M1594.4-839c0,.9.5,1.6,1.2,1.6s1.1-.7,1.1-1.6-.4-1.6-1.1-1.6-1.2.7-1.2,1.6m3.5-.1a2.4,2.4,0,0,1-2.4,2.6,2.2,2.2,0,0,1-2.2-2.5,2.3,2.3,0,0,1,2.3-2.5,2.2,2.2,0,0,1,2.3,2.4" transform="translate(-1519.6 877.8)"/>
  <rect class="cls-2" x="80.7" y="35.9" width="0.3" height="7.17"/>
  <path class="cls-2" d="M1603.7-839h.6c.9,0,1.4-.4,1.4-1.2s-.5-1.1-1.3-1.1h-.7Zm-.3-2.4h1a2.2,2.2,0,0,1,1.3.4,1.8,1.8,0,0,1,.4,1,1.3,1.3,0,0,1-.4,1,2,2,0,0,1-1.4.5h-.6v2.1h-.3Z" transform="translate(-1519.6 877.8)"/>
  <polygon class="cls-2" points="89.6 38.9 87.7 38.9 87.7 41 89.9 41 89.9 41.3 87.4 41.3 87.4 36.4 89.8 36.4 89.8 36.7 87.7 36.7 87.7 38.6 89.6 38.6 89.6 38.9"/>
  <path class="cls-2" d="M1610.7-839.1h.7c.8,0,1.3-.4,1.3-1s-.6-1.1-1.3-1.1h-.7Zm-.4-2.3h1.1a2.2,2.2,0,0,1,1.3.4,1.4,1.4,0,0,1,.3.9,1.3,1.3,0,0,1-.9,1.3h0c.4.1.6.5.7,1a6.8,6.8,0,0,0,.4,1.3h-.4a3.9,3.9,0,0,1-.3-1.2c-.1-.7-.4-1-1.1-1h-.7v2.2h-.4Z" transform="translate(-1519.6 877.8)"/>
  <path class="cls-2" d="M1616.6-842.5l-.9.8h-.3l.7-.8Zm-2.3,1.1v2.9c0,1.2.6,1.7,1.3,1.7s1.3-.5,1.3-1.7v-2.9h.4v2.9c0,1.4-.8,2-1.7,2s-1.6-.5-1.6-2v-2.9Z" transform="translate(-1519.6 877.8)"/>
  <rect class="cls-2" x="39.8" y="33" width="1.4" height="10.99"/>
  <path class="cls-3" d="M1566.8-853.7a8.1,8.1,0,0,0,3.5.9c1.4,0,2.2-.6,2.2-1.5s-.7-1.4-2.4-2-3.8-2.1-3.8-4.1,2-4.2,5.3-4.2a9.8,9.8,0,0,1,3.5.7l-.7,2.6a5.8,5.8,0,0,0-2.9-.7c-1.3,0-2,.6-2,1.4s.8,1.2,2.6,1.9,3.6,2.2,3.6,4.1-1.8,4.3-5.6,4.3a9.1,9.1,0,0,1-3.9-.8Z" transform="translate(-1519.6 877.8)"/>
  <path class="cls-3" d="M1583.1-855.2c-1.7,0-2.9.3-2.9,1.6a1.1,1.1,0,0,0,1.2,1.2,1.7,1.7,0,0,0,1.6-1.2.9.9,0,0,0,.1-.5Zm.4,4.7-.2-1h-.1a3.6,3.6,0,0,1-2.9,1.3,3.1,3.1,0,0,1-3.2-3.1c0-2.6,2.3-3.9,5.9-3.9h0c0-.6-.3-1.3-1.8-1.3a5.5,5.5,0,0,0-2.8.7l-.6-2a8.2,8.2,0,0,1,3.9-.9c3.4,0,4.4,2,4.4,4.4v3.5a14.4,14.4,0,0,0,.2,2.4Z" transform="translate(-1519.6 877.8)"/>
  <path class="cls-3" d="M1588.5-857.3a30.1,30.1,0,0,0-.1-3.2h2.7l.2,1.4h0a3.6,3.6,0,0,1,3.1-1.6c2.1,0,3.6,1.3,3.6,4.3v5.9h-3.1V-856c0-1.3-.4-2.2-1.6-2.2a1.9,1.9,0,0,0-1.6,1.1c0,.2-.1.5-.1.8v5.8h-3.1Z" transform="translate(-1519.6 877.8)"/>
  <path class="cls-3" d="M1607.3-864.3h3.1v8.7c0,4-1.9,5.4-4.9,5.4a8.5,8.5,0,0,1-2.3-.4l.4-2.5,1.6.2c1.3,0,2.1-.6,2.1-2.7Z" transform="translate(-1519.6 877.8)"/>
  <path class="cls-3" d="M1622.3-853.7c0,1.3.1,2.4.1,3.2h-2.7l-.2-1.4h0a3.8,3.8,0,0,1-3.2,1.7c-2,0-3.5-1.3-3.5-4.4v-5.9h3.1v5.4c0,1.4.5,2.3,1.6,2.3a1.7,1.7,0,0,0,1.6-1.1c0-.1.1-.4.1-.6v-6h3.1Z" transform="translate(-1519.6 877.8)"/>
  <path class="cls-3" d="M1630.1-855.2c-1.7,0-3,.3-3,1.6a1.2,1.2,0,0,0,1.3,1.2,1.7,1.7,0,0,0,1.6-1.2c0-.2.1-.3.1-.5Zm.3,4.7-.2-1h0a3.8,3.8,0,0,1-2.9,1.3,3.1,3.1,0,0,1-3.2-3.1c0-2.6,2.3-3.9,5.9-3.9h0c0-.6-.3-1.3-1.9-1.3a5.4,5.4,0,0,0-2.7.7l-.6-2a8.2,8.2,0,0,1,3.9-.9c3.3,0,4.4,2,4.4,4.4v3.5a16.3,16.3,0,0,0,.1,2.4Z" transform="translate(-1519.6 877.8)"/>
  <path class="cls-3" d="M1635.5-857.3c0-1.3-.1-2.3-.1-3.2h2.7v1.4h.1a3.5,3.5,0,0,1,3.1-1.6c2.1,0,3.6,1.3,3.6,4.3v5.9h-3.1V-856c0-1.3-.5-2.2-1.6-2.2a1.7,1.7,0,0,0-1.6,1.1,1.9,1.9,0,0,0-.1.8v5.8h-3.1Z" transform="translate(-1519.6 877.8)"/>
  <path class="cls-3" d="M1658.1-856.3c0-.1,0-.4-.1-.5a1.8,1.8,0,0,0-1.8-1.6c-1.4,0-2.1,1.3-2.1,2.9s.8,2.8,2.1,2.8a1.9,1.9,0,0,0,1.8-1.5,2.2,2.2,0,0,0,.1-.8Zm3.1-8.8v11.6a25.4,25.4,0,0,0,.1,3h-2.8V-852h-.1a3.3,3.3,0,0,1-3.1,1.8c-2.4,0-4.3-2.1-4.3-5.2s2.1-5.3,4.5-5.3a2.9,2.9,0,0,1,2.6,1.1h.1v-5.5Z" transform="translate(-1519.6 877.8)"/>
  <path class="cls-3" d="M1669.7-856.6c0-.8-.3-2.1-1.8-2.1s-1.8,1.2-1.9,2.1Zm-3.7,2.1c.1,1.3,1.4,1.9,2.9,1.9a7.7,7.7,0,0,0,2.7-.4l.4,2.1a9.7,9.7,0,0,1-3.6.6c-3.4,0-5.4-1.9-5.4-5.1a5,5,0,0,1,5.1-5.3c3.3,0,4.5,2.5,4.5,5,0,.5-.1,1-.1,1.2Z" transform="translate(-1519.6 877.8)"/>
  <path class="cls-3" d="M1681.7-852.8h1.1c2.8,0,4.6-1.5,4.6-4.8s-1.6-4.4-4.3-4.4h-1.4Zm-3.2-11.3a27.2,27.2,0,0,1,4.3-.3c2.6,0,4.3.4,5.6,1.5a5.8,5.8,0,0,1,2.4,5.2,7.1,7.1,0,0,1-2.3,5.6,10.1,10.1,0,0,1-6.4,1.8l-3.6-.2Z" transform="translate(-1519.6 877.8)"/>
  <path class="cls-3" d="M1692.7-860.5h3.1v10h-3.1Zm3.2-2.8a1.5,1.5,0,0,1-1.7,1.5,1.6,1.6,0,0,1-1.6-1.5,1.6,1.6,0,0,1,1.7-1.6,1.5,1.5,0,0,1,1.6,1.6" transform="translate(-1519.6 877.8)"/>
  <path class="cls-3" d="M1700.9-855.5c0,1.7.7,3,2,3s2-1.2,2-3-.5-3-2-3-2,1.5-2,3m7.3-.1a5.1,5.1,0,0,1-5.3,5.4,4.9,4.9,0,0,1-5.2-5.2,4.9,4.9,0,0,1,5.3-5.3,4.9,4.9,0,0,1,5.2,5.1" transform="translate(-1519.6 877.8)"/>
  <path class="cls-3" d="M1710-853.2a6.2,6.2,0,0,0,2.7.8c.9,0,1.3-.4,1.3-.9s-.3-.7-1.5-1.1-2.9-1.9-2.8-3.1,1.6-3.2,4.1-3.2a7,7,0,0,1,2.8.5l-.6,2.2a4,4,0,0,0-2.1-.6c-.8,0-1.2.3-1.2.8s.4.7,1.6,1.2,2.7,1.6,2.7,3.1-1.5,3.2-4.3,3.2a7.4,7.4,0,0,1-3.3-.7Z" transform="translate(-1519.6 877.8)"/>
  <path class="cls-3" d="M1571.2-870.2a5.2,5.2,0,0,1-1.7.3,3,3,0,0,1-3.2-3.2,3.3,3.3,0,0,1,3.4-3.4,3.4,3.4,0,0,1,1.5.3l-.2.7a2.5,2.5,0,0,0-1.3-.3,2.3,2.3,0,0,0-2.5,2.6,2.3,2.3,0,0,0,2.5,2.6,2.5,2.5,0,0,0,1.3-.3Z" transform="translate(-1519.6 877.8)"/>
  <polygon class="cls-3" points="52.6 1.5 53.4 1.5 53.4 7.2 56.2 7.2 56.2 7.8 52.6 7.8 52.6 1.5"/>
  <path class="cls-3" d="M1577.5-870h-.8v-6.4h.8Zm1-7.8-1.2,1.1h-.7l.9-1.1Z" transform="translate(-1519.6 877.8)"/>
  <path class="cls-3" d="M1579-870v-6.4h.9l2,3.2,1.2,2.1h0a20.9,20.9,0,0,1-.1-2.6v-2.7h.8v6.4h-.9l-2-3.2c-.4-.8-.9-1.5-1.2-2.2h0v5.4Z" transform="translate(-1519.6 877.8)"/>
  <rect class="cls-3" x="65.6" y="1.5" width="0.8" height="6.4"/>
  <path class="cls-3" d="M1592-870.2a6.5,6.5,0,0,1-1.7.3,3,3,0,0,1-3.2-3.2,3.2,3.2,0,0,1,3.3-3.4,4.5,4.5,0,0,1,1.6.3l-.2.7a2.8,2.8,0,0,0-1.3-.3,2.3,2.3,0,0,0-2.5,2.6,2.3,2.3,0,0,0,2.4,2.6,3.2,3.2,0,0,0,1.4-.3Z" transform="translate(-1519.6 877.8)"/>
  <path class="cls-3" d="M1596.2-872.7l-.7-1.8-.3-1.2h0l-.3,1.2-.7,1.8Zm-2.1.7-.7,2h-.9l2.2-6.4h1l2.2,6.4h-.9l-.7-2Z" transform="translate(-1519.6 877.8)"/>
  <rect class="cls-3" x="39.8" y="0.1" width="1.4" height="32.98"/>
</svg>
