<svg id="Capa_1" data-name="Capa 1" xmlns="http://www.w3.org/2000/svg" viewBox="0 0 197.4 44">
  <defs>
    <style>
      .cls-1, .cls-2 {
        fill: #a0a0a0;
      }

      .cls-2 {
        fill-rule: evenodd;
      }
    </style>
  </defs>
  <title>ccug</title>
  <path class="cls-1" d="M1334.2-766.1l-1.3.2a2.2,2.2,0,0,1-2.5-2.4,2.4,2.4,0,0,1,2.6-2.5l1.2.2-.2.8h-.9a1.5,1.5,0,0,0-1.6,1.6,1.4,1.4,0,0,0,1.6,1.5h.9Z" transform="translate(-1284 807.2)"/>
  <path class="cls-1" d="M1336-770.8v2.8c0,.8.3,1.3.8,1.3s.9-.4.9-1.3v-2.8h1.1v2.7c0,1.5-.7,2.2-2,2.2s-1.9-.6-1.9-2.2v-2.7Z" transform="translate(-1284 807.2)"/>
  <path class="cls-1" d="M1339.8-767.1a2.4,2.4,0,0,0,1.2.3c.5,0,.8-.2.8-.5s-.2-.5-.8-.7-1.4-.7-1.4-1.4.7-1.4,1.9-1.4l1.2.2-.2.9-1-.2c-.5,0-.7.2-.7.4s.2.5.8.7,1.3.8,1.3,1.4-.6,1.5-1.9,1.5a2.6,2.6,0,0,1-1.4-.3Z" transform="translate(-1284 807.2)"/>
  <path class="cls-1" d="M1347.2-766.1l-1.2.2a2.3,2.3,0,0,1-2.6-2.4,2.5,2.5,0,0,1,2.7-2.5l1.1.2-.2.8h-.9a1.4,1.4,0,0,0-1.5,1.6,1.4,1.4,0,0,0,1.5,1.5h.9Z" transform="translate(-1284 807.2)"/>
  <path class="cls-1" d="M1348.6-768.3c0,.9.5,1.6,1.2,1.6s1.2-.7,1.2-1.7-.5-1.6-1.2-1.6-1.2.7-1.2,1.7m3.5-.1a2.2,2.2,0,0,1-2.4,2.5,2.2,2.2,0,0,1-2.2-2.4,2.3,2.3,0,0,1,2.3-2.5,2.2,2.2,0,0,1,2.3,2.4" transform="translate(-1284 807.2)"/>
  <rect class="cls-1" x="70.5" y="35.9" width="0.3" height="7.17"/>
  <path class="cls-1" d="M1358-768.3h.6c.8,0,1.4-.4,1.4-1.2s-.6-1.1-1.4-1.1h-.6Zm-.4-2.4h1.1a1.5,1.5,0,0,1,1.2.4,1.2,1.2,0,0,1,.4,1,1.2,1.2,0,0,1-.3.9,1.9,1.9,0,0,1-1.5.6h-.5v2.1h-.4Z" transform="translate(-1284 807.2)"/>
  <polygon class="cls-1" points="79.5 38.9 77.5 38.9 77.5 41 79.7 41 79.7 41.3 77.2 41.3 77.2 36.4 79.6 36.4 79.6 36.7 77.5 36.7 77.5 38.6 79.5 38.6 79.5 38.9"/>
  <path class="cls-1" d="M1364.9-768.4h.8a1.1,1.1,0,0,0,1.2-1.1c0-.7-.5-1-1.3-1h-.7Zm-.3-2.3h1a1.7,1.7,0,0,1,1.3.4,1.2,1.2,0,0,1,.3.9,1.2,1.2,0,0,1-.9,1.2h0a1.3,1.3,0,0,1,.7,1.1,11.1,11.1,0,0,0,.4,1.3h-.4a4.9,4.9,0,0,0-.3-1.2c-.1-.7-.4-1-1-1h-.8v2.2h-.3Z" transform="translate(-1284 807.2)"/>
  <path class="cls-1" d="M1370.8-771.8l-.9.8h-.3l.7-.8Zm-2.3,1v3c0,1.2.6,1.7,1.3,1.7s1.4-.6,1.4-1.7v-3h.3v2.9c0,1.5-.8,2-1.7,2s-1.6-.4-1.6-1.9v-3Z" transform="translate(-1284 807.2)"/>
  <rect class="cls-1" x="39.8" y="33" width="1.4" height="10.98"/>
  <path class="cls-1" d="M1331.2-783a8.1,8.1,0,0,0,3.4.8c1.5,0,2.2-.6,2.2-1.5s-.6-1.3-2.3-1.9-3.8-2.1-3.8-4.1,2-4.2,5.3-4.2a8,8,0,0,1,3.5.7l-.7,2.5a8,8,0,0,0-2.9-.6c-1.4,0-2,.6-2,1.3s.8,1.3,2.6,2,3.5,2.1,3.5,4.1-1.7,4.3-5.5,4.3a10,10,0,0,1-4-.8Z" transform="translate(-1284 807.2)"/>
  <path class="cls-1" d="M1347.5-784.6c-1.7,0-2.9.4-2.9,1.6a1.1,1.1,0,0,0,1.2,1.2,1.7,1.7,0,0,0,1.6-1.1c0-.2.1-.4.1-.6Zm.3,4.8v-1h-.1a3.7,3.7,0,0,1-2.9,1.2,3.1,3.1,0,0,1-3.2-3.1c0-2.6,2.3-3.8,5.9-3.8v-.2c0-.5-.3-1.3-1.9-1.3a5.4,5.4,0,0,0-2.7.8l-.6-2a8.2,8.2,0,0,1,3.9-.9c3.3,0,4.4,2,4.4,4.3v3.5a15.7,15.7,0,0,0,.2,2.5Z" transform="translate(-1284 807.2)"/>
  <path class="cls-1" d="M1352.9-786.7c0-1.2-.1-2.3-.1-3.2h2.7l.2,1.4h0a3.9,3.9,0,0,1,3.1-1.6c2.1,0,3.6,1.4,3.6,4.3v6h-3.1v-5.6c0-1.3-.5-2.2-1.6-2.2a1.6,1.6,0,0,0-1.6,1.2,1.9,1.9,0,0,0-.1.8v5.8h-3.1Z" transform="translate(-1284 807.2)"/>
  <path class="cls-1" d="M1371.7-793.7h3.1v8.8c0,3.9-1.9,5.3-4.9,5.3a8.5,8.5,0,0,1-2.3-.3l.3-2.5,1.7.2c1.3,0,2.1-.6,2.1-2.7Z" transform="translate(-1284 807.2)"/>
  <path class="cls-1" d="M1386.7-783a30.1,30.1,0,0,0,.1,3.2h-2.7l-.2-1.4h0a3.7,3.7,0,0,1-3.2,1.6c-2,0-3.5-1.3-3.5-4.4v-5.9h3.1v5.4c0,1.5.5,2.4,1.6,2.4a1.7,1.7,0,0,0,1.5-1.1,1.5,1.5,0,0,0,.1-.7v-6h3.2Z" transform="translate(-1284 807.2)"/>
  <path class="cls-1" d="M1394.4-784.6c-1.6,0-2.9.4-2.9,1.6a1.2,1.2,0,0,0,1.3,1.2,1.8,1.8,0,0,0,1.6-1.1v-1.7Zm.4,4.8-.2-1h0a3.7,3.7,0,0,1-2.9,1.2,3.2,3.2,0,0,1-3.3-3.1c0-2.6,2.4-3.8,5.9-3.8v-.2c0-.5-.2-1.3-1.8-1.3a6.1,6.1,0,0,0-2.8.8l-.5-2a7.9,7.9,0,0,1,3.9-.9c3.3,0,4.4,2,4.4,4.3v3.5a17.8,17.8,0,0,0,.1,2.5Z" transform="translate(-1284 807.2)"/>
  <path class="cls-1" d="M1399.9-786.7c0-1.2-.1-2.3-.1-3.2h2.7v1.4h.1a3.7,3.7,0,0,1,3.1-1.6c2,0,3.6,1.4,3.6,4.3v6h-3.1v-5.6c0-1.3-.5-2.2-1.6-2.2a1.6,1.6,0,0,0-1.6,1.2,1.9,1.9,0,0,0-.1.8v5.8h-3.1Z" transform="translate(-1284 807.2)"/>
  <path class="cls-1" d="M1422.5-785.6c0-.2-.1-.4-.1-.6a1.8,1.8,0,0,0-1.8-1.5c-1.4,0-2.2,1.3-2.2,2.9s.9,2.7,2.2,2.7a1.8,1.8,0,0,0,1.8-1.5c0-.2.1-.4.1-.7Zm3.1-8.8v11.6a26.3,26.3,0,0,0,.1,3h-2.8v-1.5h-.1a3.4,3.4,0,0,1-3.1,1.7c-2.4,0-4.3-2-4.3-5.1s2.1-5.4,4.5-5.4a2.9,2.9,0,0,1,2.6,1.1h.1v-5.4Z" transform="translate(-1284 807.2)"/>
  <path class="cls-1" d="M1434.1-786a1.9,1.9,0,0,0-1.8-2,2,2,0,0,0-1.9,2Zm-3.7,2.2c.1,1.3,1.4,1.9,2.8,1.9a11.1,11.1,0,0,0,2.8-.4l.4,2.1a10.1,10.1,0,0,1-3.6.6c-3.4,0-5.4-2-5.4-5.1s1.6-5.4,5.1-5.4,4.5,2.5,4.5,5c0,.6-.1,1-.1,1.3Z" transform="translate(-1284 807.2)"/>
  <path class="cls-1" d="M1446-782.2h1.1c2.9,0,4.7-1.6,4.7-4.9s-1.6-4.4-4.3-4.4l-1.5.2Zm-3.1-11.3a25,25,0,0,1,4.2-.3c2.7,0,4.4.5,5.7,1.5a6.3,6.3,0,0,1,2.3,5.2c0,2.7-.9,4.5-2.3,5.6s-3.6,1.8-6.3,1.8l-3.6-.2Z" transform="translate(-1284 807.2)"/>
  <path class="cls-1" d="M1457.1-789.9h3.1v10.1h-3.1Zm3.2-2.8a1.6,1.6,0,0,1-1.7,1.6,1.5,1.5,0,0,1-1.6-1.6,1.4,1.4,0,0,1,1.6-1.5c1.1,0,1.7.6,1.7,1.5" transform="translate(-1284 807.2)"/>
  <path class="cls-1" d="M1465.3-784.8c0,1.7.7,3,2,3s2-1.2,2-3-.6-3.1-2-3.1-2,1.6-2,3.1m7.2-.1a5,5,0,0,1-5.3,5.3,4.9,4.9,0,0,1-5.2-5.2,5.1,5.1,0,0,1,5.4-5.3,4.9,4.9,0,0,1,5.1,5.2" transform="translate(-1284 807.2)"/>
  <path class="cls-1" d="M1474.3-782.5a7.1,7.1,0,0,0,2.7.7c1,0,1.4-.3,1.4-.8s-.3-.8-1.5-1.2-2.9-1.8-2.9-3,1.6-3.3,4.1-3.3a7,7,0,0,1,2.9.6l-.6,2.1a5.5,5.5,0,0,0-2.2-.5c-.7,0-1.2.3-1.2.8s.4.7,1.7,1.1,2.7,1.7,2.7,3.1-1.5,3.3-4.4,3.3a7.2,7.2,0,0,1-3.2-.7Z" transform="translate(-1284 807.2)"/>
  <path class="cls-1" d="M1335.6-799.5a5.2,5.2,0,0,1-1.7.3,3.1,3.1,0,0,1-3.2-3.3,3.2,3.2,0,0,1,3.4-3.3,4,4,0,0,1,1.5.2l-.2.7-1.3-.2a2.3,2.3,0,0,0-2.5,2.6,2.3,2.3,0,0,0,2.5,2.6,2.5,2.5,0,0,0,1.3-.3Z" transform="translate(-1284 807.2)"/>
  <polygon class="cls-1" points="52.6 1.5 53.4 1.5 53.4 7.2 56.2 7.2 56.2 7.8 52.6 7.8 52.6 1.5"/>
  <path class="cls-1" d="M1341.9-799.3h-.8v-6.4h.8Zm1-7.9-1.2,1.1h-.7l.9-1.1Z" transform="translate(-1284 807.2)"/>
  <path class="cls-1" d="M1343.3-799.3v-6.4h1l2,3.2,1.2,2.1h0a23.5,23.5,0,0,1-.1-2.7v-2.6h.8v6.4h-.9l-2-3.3a11.3,11.3,0,0,1-1.2-2.1h0v5.4Z" transform="translate(-1284 807.2)"/>
  <rect class="cls-1" x="65.6" y="1.5" width="0.8" height="6.4"/>
  <path class="cls-1" d="M1356.3-799.5a5.2,5.2,0,0,1-1.7.3,3,3,0,0,1-3.1-3.3,3.1,3.1,0,0,1,3.3-3.3,4,4,0,0,1,1.5.2l-.2.7-1.2-.2a2.3,2.3,0,0,0-2.5,2.6,2.3,2.3,0,0,0,2.4,2.6,3.2,3.2,0,0,0,1.4-.3Z" transform="translate(-1284 807.2)"/>
  <path class="cls-1" d="M1360.5-802l-.6-1.8-.3-1.2h0a5.6,5.6,0,0,1-.4,1.2l-.6,1.8Zm-2.1.7-.6,2h-.9l2.2-6.4h1l2.2,6.4h-.9l-.7-2Z" transform="translate(-1284 807.2)"/>
  <rect class="cls-1" x="39.8" y="0.1" width="1.4" height="32.98"/>
  <path class="cls-2" d="M1302.5-772.4h-.4a.9.9,0,0,0-.9-.9.8.8,0,0,0-.9.6,9.2,9.2,0,0,1-2.4-1.3.8.8,0,0,0,.1-.4.9.9,0,0,0-.9-1h-.4l-.3-.6a.7.7,0,0,0,.3-.6.9.9,0,0,0-.9-1,5.7,5.7,0,0,1-.1-1.3,4.9,4.9,0,0,1,.1-1.2.9.9,0,0,0,.9-.9,1.2,1.2,0,0,0-.4-.8l.4-.6h.4a.9.9,0,0,0,.9-.9,1.4,1.4,0,0,0-.2-.6,7.2,7.2,0,0,1,2.4-1.4,1,1,0,0,0,1,.7.9.9,0,0,0,.9-.9h.8a.9.9,0,0,0,1,.9,1,1,0,0,0,.9-.6,5.8,5.8,0,0,1,2.3,1.3,1.3,1.3,0,0,0-.1.6.9.9,0,0,0,1,.9h.3l.3.6a1.1,1.1,0,0,0-.3.7c0,.5.4.8.9.9a4.9,4.9,0,0,1,.1,1.2c0,.4-.1.9-.1,1.3a1.1,1.1,0,0,0-.9,1,.9.9,0,0,0,.3.6,2.1,2.1,0,0,1-.4.6h-.2a.9.9,0,0,0-1,1v.4a8,8,0,0,1-2.2,1.3,1,1,0,0,0-.9-.6.9.9,0,0,0-1,.9h-.4m3.8-16.5a.6.6,0,0,1,.7-.4,3.3,3.3,0,0,0,2.1.8,1.8,1.8,0,0,0,1.9-1.8,2.4,2.4,0,0,0-1.7-2.5,6,6,0,0,0-5.1.4v-2.3h3.5v-3.4h-3.5v-3.5h-3.4v3.5h-3.6v3.4h3.6v2.2a6.1,6.1,0,0,0-5-.3,2.4,2.4,0,0,0-1.7,2.5,1.9,1.9,0,0,0,1.9,1.8,3.3,3.3,0,0,0,2.1-.8.7.7,0,0,1,.8.4,10.4,10.4,0,0,0-6.8,9.8,10.5,10.5,0,0,0,10.5,10.4,10.4,10.4,0,0,0,10.4-10.4,10.5,10.5,0,0,0-6.7-9.8" transform="translate(-1284 807.2)"/>
  <path class="cls-2" d="M1299.8-782.4a.9.9,0,0,0,.9-.9.9.9,0,0,0-.9-1,.9.9,0,0,0-1,1,.9.9,0,0,0,1,.9" transform="translate(-1284 807.2)"/>
  <path class="cls-2" d="M1302.5-782.4a.9.9,0,0,0,.9-.9.9.9,0,0,0-.9-1,.9.9,0,0,0-1,1,.9.9,0,0,0,1,.9" transform="translate(-1284 807.2)"/>
  <path class="cls-2" d="M1305.2-782.4a.9.9,0,0,0,1-.9.9.9,0,0,0-1-1,.9.9,0,0,0-1,1,.9.9,0,0,0,1,.9" transform="translate(-1284 807.2)"/>
  <path class="cls-2" d="M1298.5-780.2a.9.9,0,0,0,.9-.9.9.9,0,0,0-.9-1,.9.9,0,0,0-1,1,.9.9,0,0,0,1,.9" transform="translate(-1284 807.2)"/>
  <path class="cls-2" d="M1300.2-781.1a.9.9,0,0,0,1,.9.9.9,0,0,0,.9-.9.9.9,0,0,0-.9-1,.9.9,0,0,0-1,1" transform="translate(-1284 807.2)"/>
  <path class="cls-2" d="M1302.9-781.1a.9.9,0,0,0,1,.9.9.9,0,0,0,.9-.9.9.9,0,0,0-.9-1,.9.9,0,0,0-1,1" transform="translate(-1284 807.2)"/>
  <path class="cls-2" d="M1305.6-781.1a.9.9,0,0,0,1,.9,1,1,0,0,0,1-.9,1,1,0,0,0-1-1,.9.9,0,0,0-1,1" transform="translate(-1284 807.2)"/>
  <path class="cls-2" d="M1298-778.9a.9.9,0,0,0-.9-1,.9.9,0,0,0-1,1,.9.9,0,0,0,1,1,.9.9,0,0,0,.9-1" transform="translate(-1284 807.2)"/>
  <path class="cls-2" d="M1299.8-779.9a.9.9,0,0,0-1,1,.9.9,0,0,0,1,1,.9.9,0,0,0,.9-1,.9.9,0,0,0-.9-1" transform="translate(-1284 807.2)"/>
  <path class="cls-2" d="M1302.5-779.9a.9.9,0,0,0-1,1,.9.9,0,0,0,1,1,.9.9,0,0,0,.9-1,.9.9,0,0,0-.9-1" transform="translate(-1284 807.2)"/>
  <path class="cls-2" d="M1306.2-778.9a.9.9,0,0,0-1-1,.9.9,0,0,0-1,1,.9.9,0,0,0,1,1,.9.9,0,0,0,1-1" transform="translate(-1284 807.2)"/>
  <path class="cls-2" d="M1307-778.9a.9.9,0,0,0,1,1,.9.9,0,0,0,.9-1,.9.9,0,0,0-.9-1,.9.9,0,0,0-1,1" transform="translate(-1284 807.2)"/>
  <path class="cls-2" d="M1299.4-776.7a.9.9,0,0,0-.9-1,.9.9,0,0,0-1,1,.9.9,0,0,0,1,.9.9.9,0,0,0,.9-.9" transform="translate(-1284 807.2)"/>
  <path class="cls-2" d="M1302.1-776.7a.9.9,0,0,0-.9-1,.9.9,0,0,0-1,1,.9.9,0,0,0,1,.9.9.9,0,0,0,.9-.9" transform="translate(-1284 807.2)"/>
  <path class="cls-2" d="M1304.8-776.7a.9.9,0,0,0-.9-1,.9.9,0,0,0-1,1,.9.9,0,0,0,1,.9.9.9,0,0,0,.9-.9" transform="translate(-1284 807.2)"/>
  <path class="cls-2" d="M1306.6-777.7a.9.9,0,0,0-1,1,.9.9,0,0,0,1,.9,1,1,0,0,0,1-.9,1,1,0,0,0-1-1" transform="translate(-1284 807.2)"/>
  <path class="cls-2" d="M1299.8-775.5a.9.9,0,0,0-1,1,.9.9,0,0,0,1,.9.9.9,0,0,0,.9-.9.9.9,0,0,0-.9-1" transform="translate(-1284 807.2)"/>
  <path class="cls-2" d="M1303.4-774.5a.9.9,0,0,0-.9-1,.9.9,0,0,0-1,1,.9.9,0,0,0,1,.9.9.9,0,0,0,.9-.9" transform="translate(-1284 807.2)"/>
  <path class="cls-2" d="M1305.2-775.5a.9.9,0,0,0-1,1,.9.9,0,0,0,1,.9.9.9,0,0,0,1-.9.9.9,0,0,0-1-1" transform="translate(-1284 807.2)"/>
  <path class="cls-2" d="M1315.9-774.9a3.4,3.4,0,0,0-2.3,2.9,3.7,3.7,0,0,1-1.2.7,4.4,4.4,0,0,1-1.3.2,11.5,11.5,0,0,0,2.4-4,9.3,9.3,0,0,1,1.8-1.2c2.2-.7,3.4-1.6,4-2.8s1-3.3,1.8-4.6c-2.5.4-5.4,2.2-6.1,6.7a5.7,5.7,0,0,1-1.2,1.1,11.3,11.3,0,0,0,.5-3.2,7.8,7.8,0,0,0-.3-2.2,3.1,3.1,0,0,0,2.9-2.2c.8-2.6,1.5-4.3,2.2-4.8-3.9.2-6.7,2.1-5.6,6.9h0a8.5,8.5,0,0,1,.3,2.3,10.3,10.3,0,0,1-.6,3.5h0a10.6,10.6,0,0,1-3.3,4.8,8.1,8.1,0,0,0,2.7,0,12.4,12.4,0,0,0,4.5-1.4c1.2-.8,1.9-2.5,3.3-4-1.9.8-3.1.7-4.5,1.2" transform="translate(-1284 807.2)"/>
  <path class="cls-2" d="M1289.3-774.9a3.7,3.7,0,0,1,2.3,2.9c.1.3.9.6,1.2.7a3.5,3.5,0,0,0,1.3.2,10.4,10.4,0,0,1-2.5-4l-1.7-1.2c-2.2-.7-3.4-1.6-4.1-2.8s-1-3.3-1.8-4.6c2.5.4,5.4,2.2,6.1,6.7a5.7,5.7,0,0,0,1.2,1.1,11.2,11.2,0,0,1-.4-3.2,7.8,7.8,0,0,1,.2-2.2c-1.1,0-2.1-.6-2.8-2.2s-1.6-4.3-2.2-4.8c3.9.2,6.6,2.1,5.5,6.9h0a8.6,8.6,0,0,0-.2,2.3,10.2,10.2,0,0,0,.5,3.5h0a.1.1,0,0,0,.1.1,10.4,10.4,0,0,0,3.2,4.8,8.1,8.1,0,0,1-2.7,0,12.4,12.4,0,0,1-4.5-1.4c-1.2-.8-1.9-2.5-3.2-4,1.8.8,3.1.7,4.5,1.2" transform="translate(-1284 807.2)"/>
</svg>
