<svg id="Capa_1" data-name="Capa 1" xmlns="http://www.w3.org/2000/svg" viewBox="0 0 62.3 76">
  <defs>
    <style>
      .cls-1 {
        fill: #262424;
      }
    </style>
  </defs>
  <title>escu</title>
  <path class="cls-1" d="M1531,367.8h.8c13.8,0,24.3-8.7,24.3-20.2V310.3c0-4.6-2.3-7.5-5.9-7.5h-2.3v-.9a5.7,5.7,0,0,0-5.9-5.9,5.9,5.9,0,0,0-3.4,1l-.3.2v-.4a5.6,5.6,0,0,0-5.8-4.9,5.7,5.7,0,0,0-5.5,3.8v.3l-.3-.2a5.8,5.8,0,0,0-3.6-1.2,5.7,5.7,0,0,0-5.9,5.9v26.6a3,3,0,0,1-2.4,2.8,3.8,3.8,0,0,1-4.3-2c-2.7-4.9-8.4-8.8-14.4-5.7a3.9,3.9,0,0,0-2.1,2.7,3.6,3.6,0,0,0,.8,3c6.1,7.3,8.6,14.1,10.7,20.1,1.5,4,2.8,7.8,5,11.1.7,1,2.3,1.6,4.2,1.6h1c2.1-.3,5.9-1.6,7.8-7.3s1.1-14.5-.3-17.3a1.1,1.1,0,0,0-1.4-.6,1.1,1.1,0,0,0-.6,1.5c1,2.2,1.4,11.8.1,15.7s-3.6,5.3-5.4,5.7a4.4,4.4,0,0,1-3.5-.5c-2.1-3.1-3.3-6.6-4.8-10.6-2.2-6.2-4.7-13.3-11.1-20.8a1.5,1.5,0,0,1-.3-1.2,1.7,1.7,0,0,1,.9-1.1c5.4-2.8,9.8,1.7,11.5,4.8a5.8,5.8,0,0,0,6.7,3,5.1,5.1,0,0,0,4.1-4.9V300.5a3.6,3.6,0,0,1,3.7-3.7,3.5,3.5,0,0,1,3.6,3.7V323a1.1,1.1,0,0,0,1.2,1.1,1.1,1.1,0,0,0,1.1-1.1V297.8a3.7,3.7,0,1,1,7.3,0V323a1.1,1.1,0,1,0,2.2,0V301.9a3.7,3.7,0,1,1,7.4,0v22.5a1.1,1.1,0,0,0,2.2,0V305h2.3c3.2,0,3.7,3.3,3.7,5.3v37.3c0,10.3-9.5,18-22.1,18h-.8a.9.9,0,0,1-.9-.6,1.1,1.1,0,0,1,.1-1.2l5.1-5.8,10.7-6.7a1.3,1.3,0,0,0,.4-1.6,1.4,1.4,0,0,0-1-.5l-.6.2-10.9,6.8-.3.2-5.1,6a3.4,3.4,0,0,0-.5,3.5A3.3,3.3,0,0,0,1531,367.8Z" transform="translate(-1493.8 -291.9)"/>
  <path class="cls-1" d="M1532.1,330.8l-4.1,10.9a1.4,1.4,0,0,0,0,.9.9.9,0,0,0,.6.6,1.2,1.2,0,0,0,1.5-.7l4.1-10.9a1,1,0,0,0-.1-.9,1,1,0,0,0-.6-.5h-.4A1.1,1.1,0,0,0,1532.1,330.8Z" transform="translate(-1493.8 -291.9)"/>
  <path class="cls-1" d="M1540.4,333.3l-6.8,9.6a.8.8,0,0,0-.2.8,1,1,0,0,0,.4.7,1.1,1.1,0,0,0,1.6-.3l6.8-9.5a.8.8,0,0,0,.2-.8,1.2,1.2,0,0,0-.4-.8A1.2,1.2,0,0,0,1540.4,333.3Z" transform="translate(-1493.8 -291.9)"/>
  <path class="cls-1" d="M1546.2,341.6a1.2,1.2,0,0,0,0-1.6,1.2,1.2,0,0,0-1.6,0l-8.2,8.2a1.2,1.2,0,0,0,0,1.6h0a1.2,1.2,0,0,0,1.6,0Z" transform="translate(-1493.8 -291.9)"/>
</svg>
