<svg id="LOGO" xmlns="http://www.w3.org/2000/svg" viewBox="0 0 854.6 193.4">
  <defs>
    <style>
      .cls-1, .cls-2 {
        fill: #003989;
      }

      .cls-2 {
        font-size: 41.66px;
        font-family: MyriadPro-Regular, Myriad Pro;
        letter-spacing: 0em;
      }

      .cls-3 {
        letter-spacing: -0.07em;
      }

      .cls-4 {
        fill: #8a1e41;
      }
    </style>
  </defs>
  <title>hcv</title>
  <g>
    <path class="cls-1" d="M247.7,194.5a35.7,35.7,0,0,0,15.2,3.7c6.3,0,9.6-2.6,9.6-6.5s-2.8-6-10.1-8.6c-10.1-3.5-16.7-9.1-16.7-18s8.6-18.3,23-18.3a37.7,37.7,0,0,1,15.5,3.1L281.1,161a28.5,28.5,0,0,0-12.7-2.9c-6,0-8.8,2.7-8.8,5.9s3.4,5.6,11.2,8.5c10.8,4,15.8,9.6,15.8,18.2,0,10.2-7.8,18.8-24.5,18.8-7,0-13.8-1.8-17.2-3.7Z" transform="translate(-52.2 -88.5)"/>
    <path class="cls-1" d="M319.2,187.8c-7.2-.1-12.8,1.6-12.8,6.9,0,3.5,2.3,5.3,5.4,5.3a7.5,7.5,0,0,0,7.1-5.1,8.5,8.5,0,0,0,.3-2.3Zm1.6,20.8-.8-4.4h-.3c-2.9,3.5-7.4,5.4-12.6,5.4-8.9,0-14.3-6.5-14.3-13.5,0-11.5,10.3-17,25.9-16.9v-.6c0-2.4-1.2-5.7-8-5.7a25,25,0,0,0-12.2,3.3l-2.5-8.8a36.6,36.6,0,0,1,17.1-3.9c14.7,0,19.4,8.7,19.4,19.1v15.3a61.3,61.3,0,0,0,.7,10.7Z" transform="translate(-52.2 -88.5)"/>
    <path class="cls-1" d="M342.9,178.6c0-5.5-.2-10.2-.4-14.1h11.9l.7,6.1h.2a16.5,16.5,0,0,1,13.7-7.1c9,0,15.7,6,15.7,19v26.1H371V184.2c0-5.7-1.9-9.6-6.9-9.6a7.2,7.2,0,0,0-6.9,5.2,8.3,8.3,0,0,0-.6,3.4v25.4H342.9Z" transform="translate(-52.2 -88.5)"/>
    <path class="cls-1" d="M425.4,147.8h13.7v38.5c0,17.3-8.3,23.3-21.6,23.3a35.5,35.5,0,0,1-10-1.4l1.5-11.1a23.5,23.5,0,0,0,7.1,1.1c5.7,0,9.3-2.7,9.3-12.1Z" transform="translate(-52.2 -88.5)"/>
    <path class="cls-1" d="M491.3,194.5q0,8.5.3,14.1H479.7l-.6-6.2h-.3c-1.7,2.7-5.8,7.2-13.8,7.2s-15.5-5.6-15.5-19.2V164.5h13.8v23.7c0,6.4,2.1,10.3,6.9,10.3a7.3,7.3,0,0,0,6.8-4.8,6.8,6.8,0,0,0,.5-2.9V164.5h13.8Z" transform="translate(-52.2 -88.5)"/>
    <path class="cls-1" d="M525.3,187.8c-7.2-.1-12.8,1.6-12.8,6.9,0,3.5,2.3,5.3,5.4,5.3a7.5,7.5,0,0,0,7.1-5.1,8.5,8.5,0,0,0,.3-2.3Zm1.6,20.8-.8-4.4h-.3c-2.9,3.5-7.4,5.4-12.6,5.4-8.9,0-14.3-6.5-14.3-13.5,0-11.5,10.3-17,25.9-16.9v-.6c0-2.4-1.2-5.7-8-5.7a25,25,0,0,0-12.2,3.3l-2.5-8.8a36.6,36.6,0,0,1,17.1-3.9c14.7,0,19.4,8.7,19.4,19.1v15.3a75.5,75.5,0,0,0,.6,10.7Z" transform="translate(-52.2 -88.5)"/>
    <path class="cls-1" d="M549,178.6c0-5.5-.2-10.2-.4-14.1h11.9l.7,6.1h.2a16.3,16.3,0,0,1,13.7-7.1c9,0,15.7,6,15.7,19v26.1H577.1V184.2c0-5.7-2-9.6-6.9-9.6a7.3,7.3,0,0,0-7,5.2,10.6,10.6,0,0,0-.5,3.4v25.4H549Z" transform="translate(-52.2 -88.5)"/>
    <path class="cls-1" d="M648.2,183.2a22.9,22.9,0,0,0-.2-2.5,8.2,8.2,0,0,0-8-6.7c-6.2,0-9.5,5.6-9.5,12.5s3.7,12.2,9.4,12.2a7.9,7.9,0,0,0,7.9-6.6,10.6,10.6,0,0,0,.4-3.1Zm13.7-38.6v50.8c0,5,.2,10.2.4,13.2H650.1l-.6-6.5h-.2c-2.8,5-8.1,7.5-13.8,7.5-10.5,0-18.9-8.9-18.9-22.6s9.2-23.5,19.8-23.5c5.4,0,9.6,1.9,11.6,5h.2V144.6Z" transform="translate(-52.2 -88.5)"/>
    <path class="cls-1" d="M699.2,181.6c0-3.4-1.5-9-7.8-9s-8.1,5.3-8.5,9ZM683,190.9c.5,5.7,6.1,8.4,12.5,8.4a37.6,37.6,0,0,0,12.1-1.8l1.9,9.3a44.4,44.4,0,0,1-16,2.7c-15,0-23.5-8.6-23.5-22.4,0-11.2,6.9-23.6,22.2-23.6s19.7,11.1,19.7,22a28.9,28.9,0,0,1-.5,5.4Z" transform="translate(-52.2 -88.5)"/>
    <path class="cls-1" d="M751.7,198.2a21.8,21.8,0,0,0,4.7.3c12.5.1,20.6-6.8,20.6-21.3.1-12.6-7.3-19.3-19.1-19.3a25,25,0,0,0-6.2.6Zm-13.8-49.6a123.8,123.8,0,0,1,18.5-1.2c11.6,0,19.1,2.1,24.9,6.5s10.3,12.1,10.3,22.9-4.2,19.6-10.1,24.6-16.1,7.8-28,7.8a109.8,109.8,0,0,1-15.6-.9Z" transform="translate(-52.2 -88.5)"/>
    <path class="cls-1" d="M800.1,164.5h13.7v44.1H800.1Zm14.2-12.2c0,3.7-2.9,6.8-7.4,6.8s-7.2-3.1-7.2-6.8,2.8-7,7.3-7a6.9,6.9,0,0,1,7.3,7" transform="translate(-52.2 -88.5)"/>
    <path class="cls-1" d="M836,186.5c0,7.6,3.1,13.3,9,13.3s8.8-5.3,8.8-13.3-2.6-13.2-8.8-13.2-9,6.7-9,13.2m31.9-.4c0,16.1-11.4,23.5-23.2,23.5s-22.9-8.5-22.9-22.7,9.4-23.4,23.6-23.4,22.5,9.3,22.5,22.6" transform="translate(-52.2 -88.5)"/>
    <path class="cls-1" d="M875.9,196.6a25.6,25.6,0,0,0,11.8,3.4c4.1,0,5.8-1.5,5.8-3.7s-1.3-3.4-6.5-5.1c-9.1-3.1-12.6-8-12.5-13.2,0-8.3,7-14.5,18-14.5a30.4,30.4,0,0,1,12.4,2.5l-2.4,9.5a21.6,21.6,0,0,0-9.6-2.5c-3.3,0-5.2,1.3-5.2,3.6s1.7,3.2,7.1,5c8.4,2.9,11.9,7.2,12,13.7,0,8.2-6.5,14.2-19.1,14.2-5.8,0-10.9-1.2-14.3-3Z" transform="translate(-52.2 -88.5)"/>
    <rect class="cls-1" x="163.3" y="0.3" width="6.2" height="144.7"/>
    <path class="cls-1" d="M165.2,224.2c-.5,1.2-.7,2.6-1.3,3.9a8.5,8.5,0,0,1-6.6,4.5c1.3-2.3,3.4-4.5,4.9-7.2a43,43,0,0,0,3.7-8.7c2.4-2.7,5.6-3.7,8.6-5.2a21.8,21.8,0,0,0,12-13.8c.9-3,.7-6.5,2.4-9.6.7-1.1,1.7-2,2.4-3.3-5.4.2-9.1,2.3-12.6,4.4-4.5,3.7-8.3,8.5-9.3,15.7-.3,2.2-.1,5.3-1.9,6.3a63.1,63.1,0,0,0,.3-16.8,20.8,20.8,0,0,0,9.1-10.1c.8-2,.9-4.1,1.6-6.4a26.1,26.1,0,0,1,6.1-10.3A19.7,19.7,0,0,0,163,181.4a23.1,23.1,0,0,0-.8,4.3c-.2,3.3.7,5.7,1.3,8,1.9,7.3.8,15.1-1.1,21.5a42.9,42.9,0,0,1-9.1,15.8,42.3,42.3,0,0,1-35.5,13.5c-14.7-1.5-24.9-8.6-31.4-18.2a42.4,42.4,0,0,1-6.7-29.6c.4-3.2,2-6.7,1.6-10.8a19.9,19.9,0,0,0-22.5-18c.7,1,1.7,1.9,2.4,2.9a23.2,23.2,0,0,1,3.6,7.4c.4,1.4.6,2.8,1.1,4.4a18.7,18.7,0,0,0,6.7,9.9c1,.8,3,1.7,3.2,2.4s-.2,3-.3,4.3a46.7,46.7,0,0,0,.8,12.5c-2.2-1.5-1.7-4.4-2-6.5a24.8,24.8,0,0,0-2.1-6.5c-3.4-7.5-10-12.5-20-13.6.8,1.6,1.7,2.2,2.4,3.5,1.8,3.3,1.6,7.1,2.6,10.3a21.1,21.1,0,0,0,12.6,13.3c2.6,1.1,6.9,2.9,8.1,5.1s1,3,1.7,4.4a45.1,45.1,0,0,0,4.4,7.8c.8,1.2,2,2.2,2.4,3.5a8.1,8.1,0,0,1-5.9-3.6c-1.2-1.8-1.6-4.1-2.6-6a24.3,24.3,0,0,0-2.8-4,16.6,16.6,0,0,0-3.5-2.8c-5.3-3.2-14.8-3.4-19.3,1.2,4.5,2.1,8.2,4.4,10.9,8.2.8,1.1,1.2,2,2,2.9,4.6,5.4,13.9,10.3,23.3,6.3a51.8,51.8,0,0,0,14.1,9.4,43.2,43.2,0,0,0,19.3,4.1c14.8-.6,25.5-6.2,33.3-13.9a21.4,21.4,0,0,0,10.3,1.3,21.1,21.1,0,0,0,13.5-8c.9-1.3,1.4-2.4,2.3-3.5a21.9,21.9,0,0,1,6.2-5.5c1.2-.7,2.7-.9,3.8-2.1a16.2,16.2,0,0,0-9.1-3.3,17.4,17.4,0,0,0-17,10.5" transform="translate(-52.2 -88.5)"/>
    <path class="cls-1" d="M111.9,218.2a2.8,2.8,0,1,0-2.8,2.8,2.8,2.8,0,0,0,2.8-2.8" transform="translate(-52.2 -88.5)"/>
    <path class="cls-1" d="M118.5,218.2a2.8,2.8,0,0,0-5.5,0,2.8,2.8,0,1,0,5.5,0" transform="translate(-52.2 -88.5)"/>
    <path class="cls-1" d="M124.9,218.2a2.8,2.8,0,1,0-2.8,2.8,2.8,2.8,0,0,0,2.8-2.8" transform="translate(-52.2 -88.5)"/>
    <path class="cls-1" d="M131.2,218.2a2.8,2.8,0,0,0-5.5,0,2.8,2.8,0,1,0,5.5,0" transform="translate(-52.2 -88.5)"/>
    <path class="cls-1" d="M134.8,215.5a2.8,2.8,0,1,0,2.8,2.7,2.8,2.8,0,0,0-2.8-2.7" transform="translate(-52.2 -88.5)"/>
    <path class="cls-1" d="M105.5,206.9a2.8,2.8,0,1,0-2.8,2.8,2.8,2.8,0,0,0,2.8-2.8" transform="translate(-52.2 -88.5)"/>
    <path class="cls-1" d="M106.3,206.9a2.8,2.8,0,1,0,2.8-2.8,2.9,2.9,0,0,0-2.8,2.8" transform="translate(-52.2 -88.5)"/>
    <path class="cls-1" d="M118.5,206.9a2.8,2.8,0,1,0-2.7,2.8,2.8,2.8,0,0,0,2.7-2.8" transform="translate(-52.2 -88.5)"/>
    <path class="cls-1" d="M124.9,206.9a2.8,2.8,0,1,0-2.8,2.8,2.9,2.9,0,0,0,2.8-2.8" transform="translate(-52.2 -88.5)"/>
    <path class="cls-1" d="M131.2,206.9a2.8,2.8,0,1,0-2.7,2.8,2.8,2.8,0,0,0,2.7-2.8" transform="translate(-52.2 -88.5)"/>
    <path class="cls-1" d="M132,206.9a2.8,2.8,0,1,0,2.8-2.8,2.9,2.9,0,0,0-2.8,2.8" transform="translate(-52.2 -88.5)"/>
    <path class="cls-1" d="M141.2,204.1a2.8,2.8,0,1,0,2.7,2.8,2.8,2.8,0,0,0-2.7-2.8" transform="translate(-52.2 -88.5)"/>
    <path class="cls-1" d="M102.7,198.7a2.8,2.8,0,1,0-2.7-2.8,2.8,2.8,0,0,0,2.7,2.8" transform="translate(-52.2 -88.5)"/>
    <path class="cls-1" d="M106.3,195.9a2.8,2.8,0,1,0,2.8-2.8,2.9,2.9,0,0,0-2.8,2.8" transform="translate(-52.2 -88.5)"/>
    <path class="cls-1" d="M115.8,193.1a2.8,2.8,0,1,0,2.7,2.8,2.8,2.8,0,0,0-2.7-2.8" transform="translate(-52.2 -88.5)"/>
    <path class="cls-1" d="M122.1,193.1a2.8,2.8,0,1,0,2.8,2.8,2.9,2.9,0,0,0-2.8-2.8" transform="translate(-52.2 -88.5)"/>
    <path class="cls-1" d="M128.5,193.1a2.8,2.8,0,1,0,2.7,2.8,2.8,2.8,0,0,0-2.7-2.8" transform="translate(-52.2 -88.5)"/>
    <path class="cls-1" d="M132,195.9a2.8,2.8,0,1,0,2.8-2.8,2.9,2.9,0,0,0-2.8,2.8" transform="translate(-52.2 -88.5)"/>
    <path class="cls-1" d="M138.4,195.9a2.8,2.8,0,1,0,2.8-2.8,2.8,2.8,0,0,0-2.8,2.8" transform="translate(-52.2 -88.5)"/>
    <path class="cls-1" d="M115.8,187.7a2.8,2.8,0,1,0-2.8-2.8,2.7,2.7,0,0,0,2.8,2.8" transform="translate(-52.2 -88.5)"/>
    <path class="cls-1" d="M122.1,187.7a2.8,2.8,0,1,0-2.8-2.8,2.8,2.8,0,0,0,2.8,2.8" transform="translate(-52.2 -88.5)"/>
    <path class="cls-1" d="M128.5,187.7a2.8,2.8,0,1,0-2.8-2.8,2.7,2.7,0,0,0,2.8,2.8" transform="translate(-52.2 -88.5)"/>
    <path class="cls-1" d="M112.5,221a2.8,2.8,0,1,0,2.7,2.8,2.8,2.8,0,0,0-2.7-2.8" transform="translate(-52.2 -88.5)"/>
    <path class="cls-1" d="M118.8,221a2.8,2.8,0,1,0,2.8,2.8,2.9,2.9,0,0,0-2.8-2.8" transform="translate(-52.2 -88.5)"/>
    <path class="cls-1" d="M125.2,221a2.8,2.8,0,1,0,2.7,2.8,2.8,2.8,0,0,0-2.7-2.8" transform="translate(-52.2 -88.5)"/>
    <path class="cls-1" d="M131.5,221a2.8,2.8,0,1,0,2.8,2.8,2.9,2.9,0,0,0-2.8-2.8" transform="translate(-52.2 -88.5)"/>
    <path class="cls-1" d="M108.6,212.6a2.8,2.8,0,1,0-2.8,2.8,2.9,2.9,0,0,0,2.8-2.8" transform="translate(-52.2 -88.5)"/>
    <path class="cls-1" d="M109.7,212.6a2.8,2.8,0,1,0,2.8-2.8,2.8,2.8,0,0,0-2.8,2.8" transform="translate(-52.2 -88.5)"/>
    <path class="cls-1" d="M118.8,215.4a2.8,2.8,0,1,0-2.8-2.8,2.9,2.9,0,0,0,2.8,2.8" transform="translate(-52.2 -88.5)"/>
    <path class="cls-1" d="M125.2,215.4a2.8,2.8,0,1,0-2.8-2.8,2.8,2.8,0,0,0,2.8,2.8" transform="translate(-52.2 -88.5)"/>
    <path class="cls-1" d="M131.5,215.4a2.8,2.8,0,1,0-2.8-2.8,2.9,2.9,0,0,0,2.8,2.8" transform="translate(-52.2 -88.5)"/>
    <path class="cls-1" d="M137.9,209.8a2.8,2.8,0,1,0,2.7,2.8,2.8,2.8,0,0,0-2.7-2.8" transform="translate(-52.2 -88.5)"/>
    <path class="cls-1" d="M102.2,201.6a2.8,2.8,0,1,0-5.5,0,2.8,2.8,0,0,0,5.5,0" transform="translate(-52.2 -88.5)"/>
    <path class="cls-1" d="M105.8,198.8a2.8,2.8,0,1,0,2.8,2.8,2.8,2.8,0,0,0-2.8-2.8" transform="translate(-52.2 -88.5)"/>
    <path class="cls-1" d="M109.7,201.6a2.8,2.8,0,1,0,2.8-2.8,2.7,2.7,0,0,0-2.8,2.8" transform="translate(-52.2 -88.5)"/>
    <path class="cls-1" d="M116,201.6a2.8,2.8,0,1,0,2.8-2.8,2.8,2.8,0,0,0-2.8,2.8" transform="translate(-52.2 -88.5)"/>
    <path class="cls-1" d="M122.4,201.6a2.8,2.8,0,1,0,2.8-2.8,2.7,2.7,0,0,0-2.8,2.8" transform="translate(-52.2 -88.5)"/>
    <path class="cls-1" d="M131.5,198.8a2.8,2.8,0,1,0,2.8,2.8,2.8,2.8,0,0,0-2.8-2.8" transform="translate(-52.2 -88.5)"/>
    <path class="cls-1" d="M140.6,201.6a2.8,2.8,0,1,0-2.7,2.7,2.7,2.7,0,0,0,2.7-2.7" transform="translate(-52.2 -88.5)"/>
    <path class="cls-1" d="M141.7,201.6a2.8,2.8,0,1,0,2.8-2.8,2.8,2.8,0,0,0-2.8,2.8" transform="translate(-52.2 -88.5)"/>
    <path class="cls-1" d="M103,190.4a2.8,2.8,0,1,0,2.8-2.7,2.8,2.8,0,0,0-2.8,2.7" transform="translate(-52.2 -88.5)"/>
    <path class="cls-1" d="M112.5,193.2a2.8,2.8,0,1,0-2.8-2.8,2.7,2.7,0,0,0,2.8,2.8" transform="translate(-52.2 -88.5)"/>
    <path class="cls-1" d="M116,190.4a2.8,2.8,0,1,0,2.8-2.7,2.8,2.8,0,0,0-2.8,2.7" transform="translate(-52.2 -88.5)"/>
    <path class="cls-1" d="M122.4,190.4a2.8,2.8,0,1,0,5.5,0,2.8,2.8,0,0,0-5.5,0" transform="translate(-52.2 -88.5)"/>
    <path class="cls-1" d="M128.7,190.4a2.8,2.8,0,1,0,2.8-2.7,2.8,2.8,0,0,0-2.8,2.7" transform="translate(-52.2 -88.5)"/>
    <path class="cls-1" d="M137.9,193.2a2.8,2.8,0,1,0-2.8-2.8,2.7,2.7,0,0,0,2.8,2.8" transform="translate(-52.2 -88.5)"/>
    <path class="cls-1" d="M105.5,168.7a36.3,36.3,0,0,1-3.9.7c-8.6,2.2-13.4,8.6-16.9,15.8a39,39,0,0,0-3.6,15.1,42.5,42.5,0,0,0,5.6,23.1,40.5,40.5,0,0,0,31.7,19.5A40.8,40.8,0,0,0,149,232.8a38.7,38.7,0,0,0,13.5-27.3,39.8,39.8,0,0,0-2.4-17.4c-3.2-8.7-8.3-16.1-17.3-18.7-1.3-.4-3.1-.4-4.4-1s-2.1-2.9-1.5-4.4a4,4,0,0,1,3.8-2.2c1.6.2,2.3,2.1,3.5,2.9,5.3,3.6,12.6-1.3,11.4-7.5s-8.5-10.1-15.2-10a22.7,22.7,0,0,0-11.4,3.7v-7.7h14.7V128.1H129V112.9H114.2v15.2H99.3v15.1h14.9v7.3c-7.1-5.5-18.8-2.9-23.3,2.1a11,11,0,0,0-2.6,5.3,7.4,7.4,0,0,0,11,7.3c1.7-.9,2.5-2.7,3.9-3,4.3-1,5.8,5.2,2.3,6.5M135.4,225Zm-13.5-57.6,1.6,4.1a2.3,2.3,0,0,0-1.4-.4,2.7,2.7,0,0,0-1.9.8Zm-12.8,20.3a2.8,2.8,0,0,0,2.8-2.8,2.9,2.9,0,0,0-1.4-2.4l1.3-.5h.7a2.9,2.9,0,0,0,2.7-2.3l.9-.7c-.1,0-.1.1-.1.2a2.8,2.8,0,1,0,2.8-2.8h-.4l1-2.5a2.9,2.9,0,0,0,1.1,2.1,3,3,0,0,0,1.6.5,2.5,2.5,0,0,0,1.5-.5,2.9,2.9,0,0,0,1.2-1.5l.7,1.8h-.3a2.8,2.8,0,1,0,2.7,2.8v-.2l.9.7a2.9,2.9,0,0,0,2.7,2.3h.7l1.2.5a2.9,2.9,0,0,0-1.4,2.4,2.8,2.8,0,1,0,5.6,0,2.4,2.4,0,0,0-.3-1.2l1.3.2a3.6,3.6,0,0,0-.2,1,2.8,2.8,0,0,0,4.7,2h.1l.6,1h-.1a2.8,2.8,0,0,0,.8,5.4l1-.2.9-.3.3.7h-.1c0-.1,0-.2-.1-.2a2.8,2.8,0,0,0-1.8,2.6,2.8,2.8,0,0,0,2.8,2.8h.4a23.1,23.1,0,0,1,.3,3.7,9.1,9.1,0,0,1-.1,1.7h-.6a2.8,2.8,0,0,0-2.8,2.8,2.7,2.7,0,0,0,2.5,2.7h0l-.3,1.1a3.3,3.3,0,0,0-2.1-.9h-.1a2.8,2.8,0,1,0,0,5.6h.1a16.3,16.3,0,0,1-1.1,1.7,2.4,2.4,0,0,0-.6-.9,3.2,3.2,0,0,0-1.9-.7,2.7,2.7,0,0,0-2.8,2.7,2.8,2.8,0,0,0,.8,2,2.6,2.6,0,0,0,1.3.8,6,6,0,0,1-.8.8h0a2.3,2.3,0,0,0-1.8-.8,2.8,2.8,0,0,0-2.8,2.8,2.4,2.4,0,0,0,.3,1.2,23.8,23.8,0,0,1-5.1,2.4h.1a3.2,3.2,0,0,0-1.9-.7,2.8,2.8,0,0,0-2.7,1.9h-1a2.8,2.8,0,0,0-5.4,0h-1a2.8,2.8,0,0,0-4.7-1,33.2,33.2,0,0,1-5.4-2.5,2.7,2.7,0,0,0,.3-1.2,2.9,2.9,0,0,0-2.8-2.8,2.7,2.7,0,0,0-1.8.7l-.8-.7a2.9,2.9,0,0,0,2.3-2.8,2.8,2.8,0,0,0-5.4-.9l-1.2-2h.5a2.8,2.8,0,0,0,0-5.6,2.6,2.6,0,0,0-2.3,1.4,7.5,7.5,0,0,1-.5-1.6,2.7,2.7,0,0,0,2.5-2.7,2.8,2.8,0,0,0-2.8-2.8h-.7v-1.8c0-1.3.1-2.5.2-3.8h.5a2.8,2.8,0,0,0,2.8-2.8,2.7,2.7,0,0,0-1.9-2.6l.3-.9a2.8,2.8,0,0,0,4.7-2,2.8,2.8,0,0,0-2.1-2.7l.6-.9a2.5,2.5,0,0,0,2,.9,2.7,2.7,0,0,0,2.8-2.8,3.6,3.6,0,0,0-.2-1l1.3-.2a2.7,2.7,0,0,0-.3,1.2A2.8,2.8,0,0,0,109.1,187.7Z" transform="translate(-52.2 -88.5)"/>
    <text class="cls-2" transform="translate(191.8 34.9) scale(0.98 1)">HOSPI<tspan class="cls-3" x="109.6" y="0">T</tspan><tspan x="127.4" y="0">AL</tspan></text>
    <path class="cls-4" d="M259.2,269.6a13.4,13.4,0,0,1-5.2.9c-7.1,0-10.8-4.5-10.8-10.3s5-10.9,11.2-10.9a11.3,11.3,0,0,1,5.1,1l-1,3.6a9.7,9.7,0,0,0-3.9-.7c-3.7,0-6.5,2.2-6.5,6.7s2.4,6.7,6.6,6.7a13.2,13.2,0,0,0,3.8-.6Z" transform="translate(-52.2 -88.5)"/>
    <path class="cls-4" d="M272.5,261.4l-1.3-4.3-1-4h0l-1,4-1.2,4.3Zm-5.2,3.5-1.4,5.2h-4.8l6.2-20.4h6.1l6.4,20.4h-5l-1.6-5.2Z" transform="translate(-52.2 -88.5)"/>
    <path class="cls-4" d="M287.1,258.8h1.8c2.3,0,3.7-1.2,3.7-3s-1.3-2.8-3.4-2.8h-2.1Zm-4.6-8.8a33.6,33.6,0,0,1,6.2-.5c3,0,5.1.5,6.6,1.6a5.3,5.3,0,0,1,1.9,4.3,5.7,5.7,0,0,1-3.6,5.1h0c1.4.5,2.2,1.9,2.7,3.8a42.7,42.7,0,0,0,1.7,5.7h-4.8a25.7,25.7,0,0,1-1.4-4.7c-.6-2.6-1.4-3.3-3.3-3.3h-1.4v8h-4.6Z" transform="translate(-52.2 -88.5)"/>
    <path class="cls-4" d="M310.8,261.4l-1.3-4.3c-.4-1.2-.8-2.7-1.1-4h0c-.3,1.3-.6,2.8-1,4l-1.2,4.3Zm-5.2,3.5-1.5,5.2h-4.8l6.3-20.4h6l6.4,20.4h-5l-1.6-5.2Z" transform="translate(-52.2 -88.5)"/>
    <path class="cls-4" d="M335,269.6a14,14,0,0,1-5.3.9c-7,0-10.7-4.5-10.7-10.3s5-10.9,11.2-10.9a10.4,10.4,0,0,1,5,1l-.9,3.6a9.7,9.7,0,0,0-3.9-.7c-3.7,0-6.5,2.2-6.5,6.7s2.4,6.7,6.5,6.7a13.9,13.9,0,0,0,3.9-.6Z" transform="translate(-52.2 -88.5)"/>
    <path class="cls-4" d="M348.3,261.4l-1.3-4.3-1-4h-.1c-.3,1.3-.6,2.8-.9,4l-1.2,4.3Zm-5.2,3.5-1.4,5.2h-4.8l6.2-20.4h6.1l6.3,20.4h-4.9l-1.6-5.2Z" transform="translate(-52.2 -88.5)"/>
    <path class="cls-4" d="M358.4,265.4a12.8,12.8,0,0,0,5.2,1.3c2.1,0,3.2-.9,3.2-2.3s-.9-2-3.4-2.8-5.6-3.1-5.6-6.1,2.9-6.2,7.7-6.2a11.5,11.5,0,0,1,5.2,1.1l-1,3.7a9.6,9.6,0,0,0-4.3-1c-2,0-2.9,1-2.9,2s1.1,1.9,3.7,2.9,5.4,3.2,5.4,6.1-2.7,6.4-8.3,6.4a14.2,14.2,0,0,1-5.8-1.3Z" transform="translate(-52.2 -88.5)"/>
    <rect class="cls-4" x="329.7" y="158.8" width="1.3" height="30.37"/>
    <path class="cls-4" d="M398.2,270.1l-6.8-20.4h1.5l3.6,10.9c1,3,1.8,5.6,2.4,7.9h.1c.6-2.3,1.6-5,2.6-7.9l4-10.9h1.6l-7.6,20.4Z" transform="translate(-52.2 -88.5)"/>
    <polygon class="cls-4" points="366.7 171.4 358.6 171.4 358.6 180.4 367.7 180.4 367.7 181.6 357.1 181.6 357.1 161.2 367.2 161.2 367.2 162.4 358.6 162.4 358.6 170.2 366.7 170.2 366.7 171.4"/>
    <path class="cls-4" d="M423.5,270.1V249.7h1.4l7.9,12.1a55.2,55.2,0,0,1,3.9,6.4h0c-.2-2.8-.2-5.1-.2-8.3V249.7h1.4v20.4h-1.3l-7.8-11.9a43.1,43.1,0,0,1-4-6.6h-.1c.2,2.5.2,4.7.2,8.1v10.3Z" transform="translate(-52.2 -88.5)"/>
    <polygon class="cls-4" points="400.3 171.4 392.1 171.4 392.1 180.4 401.3 180.4 401.3 181.6 390.7 181.6 390.7 161.2 400.8 161.2 400.8 162.4 392.1 162.4 392.1 170.2 400.3 170.2 400.3 171.4"/>
    <polygon class="cls-4" points="403.4 180.7 415.7 162.5 415.7 162.4 404.4 162.4 404.4 161.2 417.6 161.2 417.6 162.1 405.2 180.3 405.2 180.4 417.7 180.4 417.7 181.6 403.4 181.6 403.4 180.7"/>
    <path class="cls-4" d="M474.9,249.7V262c0,5.3,2.4,7.3,5.4,7.3s5.7-2.2,5.7-7.3V249.7h1.5v12.2c0,6.3-3.4,8.6-7.3,8.6s-6.8-2.1-6.8-8.4V249.7Z" transform="translate(-52.2 -88.5)"/>
    <polygon class="cls-4" points="449.9 171.4 441.7 171.4 441.7 180.4 450.8 180.4 450.8 181.6 440.2 181.6 440.2 161.2 450.3 161.2 450.3 162.4 441.7 162.4 441.7 170.2 449.9 170.2 449.9 171.4"/>
    <polygon class="cls-4" points="454.4 161.2 455.8 161.2 455.8 180.4 465 180.4 465 181.6 454.4 181.6 454.4 161.2"/>
    <path class="cls-4" d="M530.3,261.8l-2.5-6.9a33.4,33.4,0,0,1-1-3.6h-.1a29.2,29.2,0,0,1-1.1,3.6l-2.5,6.9Zm-7.6,1.2-2.6,7.1h-1.4l7.4-20.4h1.4l7.3,20.4h-1.4l-2.6-7.1Z" transform="translate(-52.2 -88.5)"/>
    <rect class="cls-4" x="163.3" y="145" width="6.2" height="48.39"/>
  </g>
</svg>
