<svg id="LOGO" xmlns="http://www.w3.org/2000/svg" viewBox="0 0 854.9 193.3">
  <defs>
    <style>
      .cls-1, .cls-2 {
        fill: #003989;
      }

      .cls-2 {
        font-size: 41.68px;
        font-family: MyriadPro-Regular, Myriad Pro;
        letter-spacing: 0.01em;
      }

      .cls-3 {
        letter-spacing: -0.07em;
      }

      .cls-4 {
        fill: #f5b335;
      }
    </style>
  </defs>
  <title>hqe</title>
  <g>
    <g>
      <path class="cls-1" d="M247.4,194.7a35.1,35.1,0,0,0,15.3,3.8c6.3,0,9.6-2.6,9.6-6.6s-2.9-5.9-10.2-8.6c-10.1-3.5-16.7-9.1-16.7-17.9,0-10.4,8.7-18.3,23-18.3a38.4,38.4,0,0,1,15.6,3l-3.1,11.1a30.6,30.6,0,0,0-12.7-2.8c-6,0-8.9,2.7-8.9,5.8s3.4,5.6,11.3,8.6c10.7,4,15.8,9.6,15.8,18.1,0,10.2-7.9,18.9-24.6,18.9-6.9,0-13.8-1.8-17.2-3.7Z" transform="translate(-51.9 -88.7)"/>
      <path class="cls-1" d="M319,188c-7.3-.1-12.9,1.7-12.9,7,0,3.5,2.4,5.2,5.5,5.2a7.4,7.4,0,0,0,7.1-5,9.9,9.9,0,0,0,.3-2.4Zm1.6,20.9-.8-4.4h-.3c-2.9,3.5-7.4,5.4-12.6,5.4-9,0-14.3-6.5-14.3-13.6,0-11.4,10.3-16.9,25.9-16.8v-.7c0-2.3-1.3-5.6-8-5.6a25,25,0,0,0-12.2,3.3l-2.5-8.9c3-1.7,9.1-3.8,17.1-3.8,14.7,0,19.4,8.6,19.4,19v15.3a77,77,0,0,0,.6,10.8Z" transform="translate(-51.9 -88.7)"/>
      <path class="cls-1" d="M342.7,178.8c0-5.5-.2-10.2-.4-14h11.9l.7,6h.2a16.3,16.3,0,0,1,13.7-7c9,0,15.8,5.9,15.8,18.9v26.2H370.8V184.4c0-5.7-1.9-9.5-6.9-9.5a7.4,7.4,0,0,0-7,5.1,11.1,11.1,0,0,0-.5,3.4v25.5H342.7Z" transform="translate(-51.9 -88.7)"/>
      <path class="cls-1" d="M425.2,148.1H439v38.4c0,17.3-8.3,23.4-21.7,23.4a36.1,36.1,0,0,1-10-1.5l1.5-11.1a21.2,21.2,0,0,0,7.1,1.1c5.7,0,9.3-2.6,9.3-12.1Z" transform="translate(-51.9 -88.7)"/>
      <path class="cls-1" d="M491.1,194.7c0,5.8.2,10.5.4,14.2H479.6l-.7-6.3h-.2a15.7,15.7,0,0,1-13.8,7.3c-9,0-15.6-5.6-15.6-19.2V164.8h13.8v23.7c0,6.4,2.1,10.3,6.9,10.3a7.4,7.4,0,0,0,6.9-4.8,9.1,9.1,0,0,0,.4-3V164.8h13.8Z" transform="translate(-51.9 -88.7)"/>
      <path class="cls-1" d="M525.1,188c-7.2-.1-12.8,1.7-12.8,7,0,3.5,2.4,5.2,5.4,5.2a7.5,7.5,0,0,0,7.2-5,19.4,19.4,0,0,0,.2-2.4Zm1.7,20.9-.9-4.4h-.2c-2.9,3.5-7.4,5.4-12.7,5.4-8.9,0-14.2-6.5-14.2-13.6,0-11.4,10.3-16.9,25.9-16.8v-.7c0-2.3-1.3-5.6-8.1-5.6a24.6,24.6,0,0,0-12.1,3.3l-2.6-8.9a37.3,37.3,0,0,1,17.2-3.8c14.7,0,19.4,8.6,19.4,19v15.3a77,77,0,0,0,.6,10.8Z" transform="translate(-51.9 -88.7)"/>
      <path class="cls-1" d="M548.9,178.8c0-5.5-.2-10.2-.4-14h11.9l.6,6h.3a16.1,16.1,0,0,1,13.6-7c9.1,0,15.8,5.9,15.8,18.9v26.2H577V184.4c0-5.7-2-9.5-6.9-9.5a7.4,7.4,0,0,0-7,5.1,11.1,11.1,0,0,0-.5,3.4v25.5H548.9Z" transform="translate(-51.9 -88.7)"/>
      <path class="cls-1" d="M648.1,183.4a19.4,19.4,0,0,0-.2-2.4,8.3,8.3,0,0,0-8-6.8c-6.2,0-9.5,5.6-9.5,12.6s3.7,12.1,9.4,12.1a8,8,0,0,0,7.9-6.5,10.8,10.8,0,0,0,.4-3.2Zm13.7-38.6v50.9c0,5,.2,10.2.4,13.2H650l-.6-6.5h-.2c-2.8,4.9-8.1,7.5-13.8,7.5-10.5,0-18.9-9-18.9-22.7s9.2-23.4,19.8-23.4c5.4,0,9.6,1.9,11.6,4.9h.2V144.8Z" transform="translate(-51.9 -88.7)"/>
      <path class="cls-1" d="M699.1,181.8c0-3.3-1.4-8.9-7.8-8.9s-8.1,5.2-8.4,8.9Zm-16.2,9.4c.5,5.7,6.1,8.4,12.5,8.4a41.2,41.2,0,0,0,12.2-1.8l1.8,9.3a43.6,43.6,0,0,1-16,2.7c-15,0-23.5-8.7-23.5-22.5,0-11.2,6.9-23.5,22.2-23.5s19.7,11.1,19.7,22a48.4,48.4,0,0,1-.4,5.4Z" transform="translate(-51.9 -88.7)"/>
      <path class="cls-1" d="M751.6,198.5a23.3,23.3,0,0,0,4.8.3c12.4.1,20.6-6.8,20.6-21.3,0-12.7-7.4-19.3-19.2-19.3a27.8,27.8,0,0,0-6.2.5Zm-13.8-49.6a124,124,0,0,1,18.6-1.3c11.5,0,19,2.1,24.9,6.5s10.3,12.2,10.3,22.9-4.3,19.7-10.1,24.7-16.2,7.8-28.1,7.8a110.9,110.9,0,0,1-15.6-.9Z" transform="translate(-51.9 -88.7)"/>
      <path class="cls-1" d="M800.1,164.8h13.7v44.1H800.1Zm14.1-12.3c0,3.8-2.9,6.8-7.4,6.8s-7.2-3-7.1-6.8,2.8-7,7.2-7a6.9,6.9,0,0,1,7.3,7" transform="translate(-51.9 -88.7)"/>
      <path class="cls-1" d="M836,186.8c0,7.6,3.1,13.2,9,13.2s8.7-5.3,8.7-13.2-2.5-13.3-8.7-13.3-9,6.8-9,13.3m31.9-.5c0,16.2-11.5,23.6-23.3,23.6s-22.8-8.5-22.8-22.8,9.4-23.3,23.6-23.3,22.5,9.3,22.5,22.5" transform="translate(-51.9 -88.7)"/>
      <path class="cls-1" d="M875.9,196.9a26.9,26.9,0,0,0,11.8,3.3c4.1,0,5.8-1.4,5.8-3.7s-1.3-3.3-6.5-5c-9.1-3.1-12.6-8.1-12.5-13.3,0-8.2,7-14.4,17.9-14.4a29,29,0,0,1,12.5,2.5l-2.4,9.5a21.6,21.6,0,0,0-9.6-2.6c-3.3,0-5.2,1.4-5.2,3.6s1.7,3.2,7.1,5.1c8.4,2.9,11.9,7.1,12,13.6,0,8.2-6.5,14.3-19.1,14.3a31.6,31.6,0,0,1-14.3-3.1Z" transform="translate(-51.9 -88.7)"/>
      <rect class="cls-1" x="163.4" y="0.3" width="6.2" height="144.75"/>
      <path class="cls-1" d="M164.9,224.5c-.5,1.2-.7,2.5-1.3,3.8a8.4,8.4,0,0,1-6.6,4.6c1.4-2.4,3.4-4.5,4.9-7.2a42.2,42.2,0,0,0,3.7-8.7c2.5-2.7,5.7-3.7,8.7-5.2,5.6-2.8,10.2-7.4,12-13.8.8-3,.7-6.6,2.4-9.6.6-1.2,1.7-2,2.4-3.4-5.5.3-9.1,2.3-12.6,4.5s-8.4,8.5-9.4,15.7c-.3,2.2-.1,5.2-1.9,6.2a59.1,59.1,0,0,0,.4-16.8,21.1,21.1,0,0,0,9.1-10c.8-2.1.9-4.1,1.5-6.4a27.4,27.4,0,0,1,6.1-10.3,19.5,19.5,0,0,0-21.5,13.8,17.4,17.4,0,0,0-.9,4.3c-.2,3.3.8,5.7,1.3,7.9,1.9,7.3.9,15.2-1,21.6a41.8,41.8,0,0,1-9.2,15.7,42.3,42.3,0,0,1-35.5,13.6c-14.7-1.5-24.9-8.6-31.4-18.3a42.2,42.2,0,0,1-6.7-29.6c.4-3.1,2-6.7,1.6-10.8a19.2,19.2,0,0,0-7.2-13.5,18.9,18.9,0,0,0-15.3-4.5c.7,1.1,1.7,1.9,2.4,2.9a24.2,24.2,0,0,1,3.6,7.4c.4,1.4.6,2.9,1.1,4.5a18.8,18.8,0,0,0,6.7,9.8c1,.9,3,1.7,3.2,2.4s-.2,3.1-.3,4.3a46.2,46.2,0,0,0,.8,12.5c-2.2-1.4-1.7-4.4-2-6.5a22.9,22.9,0,0,0-2.1-6.4c-3.4-7.5-10.1-12.6-20-13.6.8,1.5,1.7,2.2,2.4,3.5,1.8,3.3,1.6,7.1,2.6,10.3a21.3,21.3,0,0,0,12.6,13.3c2.6,1,6.9,2.9,8.1,5.1s1,3,1.6,4.4a53.1,53.1,0,0,0,4.5,7.8c.8,1.2,2,2.2,2.4,3.5a8.7,8.7,0,0,1-5.9-3.6c-1.2-1.8-1.6-4.2-2.6-6a18,18,0,0,0-2.8-4,20.8,20.8,0,0,0-3.5-2.9c-5.4-3.1-14.8-3.4-19.3,1.2,4.4,2.2,8.2,4.5,10.9,8.3.8,1.1,1.2,2,2,2.9,4.6,5.4,13.9,10.2,23.3,6.2a52,52,0,0,0,14.1,9.5,43.2,43.2,0,0,0,19.3,4.1c14.8-.6,25.5-6.3,33.4-13.9a21.1,21.1,0,0,0,10.3,1.3,20.8,20.8,0,0,0,13.4-8.1c.9-1.2,1.4-2.4,2.3-3.4a23.2,23.2,0,0,1,6.2-5.5c1.2-.7,2.8-.9,3.9-2.1a15.4,15.4,0,0,0-9.2-3.3,17.3,17.3,0,0,0-17,10.5" transform="translate(-51.9 -88.7)"/>
      <path class="cls-1" d="M111.6,218.5a2.8,2.8,0,1,0-2.8,2.8,2.9,2.9,0,0,0,2.8-2.8" transform="translate(-51.9 -88.7)"/>
      <path class="cls-1" d="M118.2,218.5a2.8,2.8,0,1,0-2.7,2.8,2.8,2.8,0,0,0,2.7-2.8" transform="translate(-51.9 -88.7)"/>
      <path class="cls-1" d="M124.6,218.5a2.8,2.8,0,1,0-2.8,2.8,2.8,2.8,0,0,0,2.8-2.8" transform="translate(-51.9 -88.7)"/>
      <path class="cls-1" d="M131,218.5a2.8,2.8,0,1,0-2.8,2.8,2.9,2.9,0,0,0,2.8-2.8" transform="translate(-51.9 -88.7)"/>
      <path class="cls-1" d="M134.5,215.7a2.8,2.8,0,1,0,2.8,2.8,2.8,2.8,0,0,0-2.8-2.8" transform="translate(-51.9 -88.7)"/>
      <path class="cls-1" d="M105.2,207.1a2.8,2.8,0,1,0-2.8,2.8,2.7,2.7,0,0,0,2.8-2.8" transform="translate(-51.9 -88.7)"/>
      <path class="cls-1" d="M106,207.1a2.8,2.8,0,1,0,2.8-2.7,2.8,2.8,0,0,0-2.8,2.7" transform="translate(-51.9 -88.7)"/>
      <path class="cls-1" d="M118.2,207.1a2.8,2.8,0,0,0-5.5,0,2.8,2.8,0,1,0,5.5,0" transform="translate(-51.9 -88.7)"/>
      <path class="cls-1" d="M124.6,207.1a2.8,2.8,0,1,0-2.8,2.8,2.7,2.7,0,0,0,2.8-2.8" transform="translate(-51.9 -88.7)"/>
      <path class="cls-1" d="M131,207.1a2.8,2.8,0,1,0-2.8,2.8,2.8,2.8,0,0,0,2.8-2.8" transform="translate(-51.9 -88.7)"/>
      <path class="cls-1" d="M131.8,207.1a2.8,2.8,0,1,0,2.7-2.7,2.7,2.7,0,0,0-2.7,2.7" transform="translate(-51.9 -88.7)"/>
      <path class="cls-1" d="M140.9,204.4a2.8,2.8,0,1,0,2.8,2.7,2.8,2.8,0,0,0-2.8-2.7" transform="translate(-51.9 -88.7)"/>
      <path class="cls-1" d="M102.4,198.9a2.8,2.8,0,1,0-2.7-2.7,2.7,2.7,0,0,0,2.7,2.7" transform="translate(-51.9 -88.7)"/>
      <path class="cls-1" d="M106,196.2a2.8,2.8,0,1,0,2.8-2.8,2.8,2.8,0,0,0-2.8,2.8" transform="translate(-51.9 -88.7)"/>
      <path class="cls-1" d="M115.5,193.4a2.8,2.8,0,1,0,0,5.5,2.8,2.8,0,0,0,0-5.5" transform="translate(-51.9 -88.7)"/>
      <path class="cls-1" d="M121.8,193.4a2.8,2.8,0,1,0,2.8,2.8,2.7,2.7,0,0,0-2.8-2.8" transform="translate(-51.9 -88.7)"/>
      <path class="cls-1" d="M128.2,193.4a2.8,2.8,0,1,0,2.8,2.8,2.8,2.8,0,0,0-2.8-2.8" transform="translate(-51.9 -88.7)"/>
      <path class="cls-1" d="M131.8,196.2a2.8,2.8,0,0,0,5.5,0,2.8,2.8,0,1,0-5.5,0" transform="translate(-51.9 -88.7)"/>
      <path class="cls-1" d="M138.1,196.2a2.8,2.8,0,1,0,2.8-2.8,2.8,2.8,0,0,0-2.8,2.8" transform="translate(-51.9 -88.7)"/>
      <path class="cls-1" d="M115.5,188a2.8,2.8,0,1,0-2.8-2.8,2.8,2.8,0,0,0,2.8,2.8" transform="translate(-51.9 -88.7)"/>
      <path class="cls-1" d="M121.8,188a2.8,2.8,0,1,0-2.7-2.8,2.8,2.8,0,0,0,2.7,2.8" transform="translate(-51.9 -88.7)"/>
      <path class="cls-1" d="M128.2,188a2.8,2.8,0,1,0-2.8-2.8,2.9,2.9,0,0,0,2.8,2.8" transform="translate(-51.9 -88.7)"/>
      <path class="cls-1" d="M112.2,221.3a2.8,2.8,0,1,0,0,5.5,2.8,2.8,0,0,0,0-5.5" transform="translate(-51.9 -88.7)"/>
      <path class="cls-1" d="M118.5,221.3a2.8,2.8,0,1,0,2.8,2.8,2.7,2.7,0,0,0-2.8-2.8" transform="translate(-51.9 -88.7)"/>
      <path class="cls-1" d="M124.9,221.3a2.8,2.8,0,1,0,0,5.5,2.8,2.8,0,1,0,0-5.5" transform="translate(-51.9 -88.7)"/>
      <path class="cls-1" d="M131.2,221.3a2.8,2.8,0,1,0,2.8,2.8,2.7,2.7,0,0,0-2.8-2.8" transform="translate(-51.9 -88.7)"/>
      <path class="cls-1" d="M108.3,212.9a2.8,2.8,0,1,0-2.8,2.7,2.8,2.8,0,0,0,2.8-2.7" transform="translate(-51.9 -88.7)"/>
      <path class="cls-1" d="M109.4,212.9a2.8,2.8,0,1,0,2.8-2.8,2.7,2.7,0,0,0-2.8,2.8" transform="translate(-51.9 -88.7)"/>
      <path class="cls-1" d="M118.5,215.6a2.8,2.8,0,1,0-2.7-2.7,2.7,2.7,0,0,0,2.7,2.7" transform="translate(-51.9 -88.7)"/>
      <path class="cls-1" d="M124.9,215.6a2.8,2.8,0,1,0,0-5.5,2.8,2.8,0,1,0,0,5.5" transform="translate(-51.9 -88.7)"/>
      <path class="cls-1" d="M131.2,215.6a2.8,2.8,0,1,0-2.7-2.7,2.7,2.7,0,0,0,2.7,2.7" transform="translate(-51.9 -88.7)"/>
      <path class="cls-1" d="M137.6,210.1a2.8,2.8,0,1,0,2.8,2.8,2.8,2.8,0,0,0-2.8-2.8" transform="translate(-51.9 -88.7)"/>
      <path class="cls-1" d="M101.9,201.8a2.8,2.8,0,1,0-2.8,2.8,2.8,2.8,0,0,0,2.8-2.8" transform="translate(-51.9 -88.7)"/>
      <path class="cls-1" d="M105.5,199a2.8,2.8,0,1,0,2.8,2.8,2.9,2.9,0,0,0-2.8-2.8" transform="translate(-51.9 -88.7)"/>
      <path class="cls-1" d="M109.4,201.8a2.8,2.8,0,1,0,2.8-2.8,2.8,2.8,0,0,0-2.8,2.8" transform="translate(-51.9 -88.7)"/>
      <path class="cls-1" d="M115.8,201.8a2.8,2.8,0,1,0,2.7-2.8,2.8,2.8,0,0,0-2.7,2.8" transform="translate(-51.9 -88.7)"/>
      <path class="cls-1" d="M122.1,201.8a2.8,2.8,0,0,0,2.8,2.8,2.8,2.8,0,0,0,0-5.6,2.8,2.8,0,0,0-2.8,2.8" transform="translate(-51.9 -88.7)"/>
      <path class="cls-1" d="M131.2,199a2.8,2.8,0,1,0,2.8,2.8,2.8,2.8,0,0,0-2.8-2.8" transform="translate(-51.9 -88.7)"/>
      <path class="cls-1" d="M140.4,201.8a2.8,2.8,0,1,0-2.8,2.8,2.9,2.9,0,0,0,2.8-2.8" transform="translate(-51.9 -88.7)"/>
      <path class="cls-1" d="M141.5,201.8a2.8,2.8,0,1,0,2.7-2.8,2.8,2.8,0,0,0-2.7,2.8" transform="translate(-51.9 -88.7)"/>
      <path class="cls-1" d="M102.7,190.7a2.8,2.8,0,1,0,2.8-2.8,2.9,2.9,0,0,0-2.8,2.8" transform="translate(-51.9 -88.7)"/>
      <path class="cls-1" d="M112.2,193.5a2.8,2.8,0,1,0-2.8-2.8,2.8,2.8,0,0,0,2.8,2.8" transform="translate(-51.9 -88.7)"/>
      <path class="cls-1" d="M115.8,190.7a2.8,2.8,0,1,0,2.7-2.8,2.8,2.8,0,0,0-2.7,2.8" transform="translate(-51.9 -88.7)"/>
      <path class="cls-1" d="M122.1,190.7a2.8,2.8,0,0,0,2.8,2.8,2.8,2.8,0,0,0,0-5.6,2.8,2.8,0,0,0-2.8,2.8" transform="translate(-51.9 -88.7)"/>
      <path class="cls-1" d="M128.5,190.7a2.8,2.8,0,1,0,2.7-2.8,2.8,2.8,0,0,0-2.7,2.8" transform="translate(-51.9 -88.7)"/>
      <path class="cls-1" d="M137.6,193.5a2.8,2.8,0,1,0-2.8-2.8,2.9,2.9,0,0,0,2.8,2.8" transform="translate(-51.9 -88.7)"/>
      <path class="cls-1" d="M105.2,168.9a20.1,20.1,0,0,1-3.9.7c-8.6,2.3-13.4,8.6-16.9,15.9a38.1,38.1,0,0,0-3.6,15.1,41.9,41.9,0,0,0,5.6,23,39.3,39.3,0,0,0,9.6,11,41.9,41.9,0,0,0,22.1,8.6,41,41,0,0,0,30.6-10.1,39.2,39.2,0,0,0,13.6-27.3,42.8,42.8,0,0,0-2.4-17.4c-3.2-8.7-8.4-16.1-17.4-18.8a36.7,36.7,0,0,1-4.3-.9c-1.7-.7-2.2-2.9-1.6-4.5a3.7,3.7,0,0,1,3.8-2.1c1.6.1,2.3,2.1,3.5,2.9,5.4,3.5,12.6-1.4,11.4-7.6s-8.5-10-15.2-9.9a21.7,21.7,0,0,0-11.4,3.6v-7.7h14.7V128.3H128.7V113.2H113.9v15.1H99v15.1h14.9v7.3c-7.1-5.5-18.7-2.9-23.3,2.2a11.1,11.1,0,0,0-2.6,5.2,7.4,7.4,0,0,0,11,7.3c1.7-.9,2.5-2.6,3.9-3,4.3-.9,5.8,5.2,2.3,6.5m29.9,56.4h0Zm-13.5-57.6,1.6,4a3.2,3.2,0,0,0-1.4-.3,3.2,3.2,0,0,0-1.9.7ZM108.8,188a2.9,2.9,0,0,0,2.8-2.8,2.9,2.9,0,0,0-1.4-2.4l1.3-.6h.7a2.8,2.8,0,0,0,2.7-2.2l.9-.8v.2a2.8,2.8,0,1,0,2.7-2.7h-.4l1-2.5a2.7,2.7,0,0,0,1.1,2.1,2.8,2.8,0,0,0,3.2,0,2.8,2.8,0,0,0,1.1-1.5l.7,1.9h-.3a2.8,2.8,0,1,0,0,5.5,2.8,2.8,0,0,0,2.8-2.8h-.1l.9.7a2.8,2.8,0,0,0,2.7,2.2h.7l1.3.6a2.7,2.7,0,0,0-1.4,2.4,2.8,2.8,0,1,0,5.2-1.3l1.3.2a4.3,4.3,0,0,0-.2,1.1,2.9,2.9,0,0,0,2.8,2.8,2.7,2.7,0,0,0,1.9-.8h.1l.7.9h-.2a2.8,2.8,0,0,0-1.9,2.7,2.8,2.8,0,0,0,2.7,2.8l1.1-.2.8-.4.3.8h-.1v-.2a2.8,2.8,0,0,0-1.9,2.7,2.8,2.8,0,0,0,2.8,2.7h.5c.1,1.3.2,2.5.2,3.8v1.7h-.7a2.8,2.8,0,0,0-2.8,2.7,2.7,2.7,0,0,0,2.5,2.8h0l-.3,1.2a2.7,2.7,0,0,0-2.1-.9h-.1a2.8,2.8,0,1,0,0,5.5h.1l-1,1.8a2.2,2.2,0,0,0-.7-.9,2.7,2.7,0,0,0-1.9-.8,2.9,2.9,0,0,0-2.8,2.8,2.8,2.8,0,0,0,.8,2l1.4.8-.8.7h0a3.2,3.2,0,0,0-1.9-.7,2.8,2.8,0,0,0-2.8,2.8,2.7,2.7,0,0,0,.3,1.2,29.8,29.8,0,0,1-5.1,2.4h.1a2.7,2.7,0,0,0-1.9-.8,2.7,2.7,0,0,0-2.6,1.9l-1.1.2a2.8,2.8,0,0,0-2.7-2.1,2.9,2.9,0,0,0-2.7,2.1h-1a2.8,2.8,0,0,0-2.6-2,3.1,3.1,0,0,0-2.1.9,22,22,0,0,1-5.4-2.5,2,2,0,0,0,.3-1.1,2.8,2.8,0,0,0-2.8-2.8,2.4,2.4,0,0,0-1.8.7,6,6,0,0,1-.8-.8,2.7,2.7,0,0,0,2.3-2.7,2.8,2.8,0,0,0-2.8-2.8,2.8,2.8,0,0,0-2.6,1.8l-1.2-1.9h.5a2.8,2.8,0,1,0,0-5.5,2.5,2.5,0,0,0-2.3,1.3,8.8,8.8,0,0,1-.5-1.5,2.7,2.7,0,0,0,2.5-2.8,2.7,2.7,0,0,0-2.8-2.7h-.7v-1.8c0-1.3.1-2.6.2-3.8H96a2.7,2.7,0,0,0,2.8-2.7,2.8,2.8,0,0,0-1.9-2.7l.3-.8a2.7,2.7,0,0,0,1.9.8,2.8,2.8,0,0,0,.7-5.5l.6-.9a2.9,2.9,0,0,0,2,.9,2.8,2.8,0,0,0,2.8-2.8,4.3,4.3,0,0,0-.2-1.1l1.3-.2a2.8,2.8,0,0,0-.3,1.3A2.9,2.9,0,0,0,108.8,188Z" transform="translate(-51.9 -88.7)"/>
      <text class="cls-2" transform="translate(191.9 34.9) scale(0.98 1)">HOSPI<tspan class="cls-3" x="109.6" y="0">T</tspan><tspan x="127.4" y="0">AL ESPECIALIZADO</tspan></text>
    </g>
    <path class="cls-4" d="M259.2,259.6c0-3.9-1.9-7.1-5.1-7.1s-5.2,3.2-5.2,7.2,1.9,7.1,5.1,7.1,5.2-3.1,5.2-7.2m3.7,14.3a74.2,74.2,0,0,1-8.3-3,4,4,0,0,0-1.5-.3c-4.8-.3-9.3-3.8-9.3-10.8s4-11.1,10.4-11.1,10,4.9,10,10.7-2.2,8.2-5,9.5h0c1.6.5,3.5.8,5.1,1.2Z" transform="translate(-51.9 -88.7)"/>
    <path class="cls-4" d="M272.2,249v12.2c0,3.7,1.4,5.6,3.8,5.6s3.9-1.8,3.9-5.6V249h4.8v11.9c0,6.6-3.3,9.7-8.8,9.7s-8.5-3-8.5-9.7V249Z" transform="translate(-51.9 -88.7)"/>
    <rect class="cls-4" x="237" y="160.3" width="4.8" height="21.24"/>
    <polygon class="cls-4" points="250.1 164.3 244.4 164.3 244.4 160.3 260.7 160.3 260.7 164.3 254.9 164.3 254.9 181.5 250.1 181.5 250.1 164.3"/>
    <path class="cls-4" d="M318.3,259.7c0,4.2,2,7.1,5.2,7.1s5.1-3.1,5.1-7.2-1.8-7.1-5.1-7.1-5.2,3.1-5.2,7.2m15.4-.3c0,7-4.2,11.2-10.4,11.2s-10-4.8-10-10.8,4-11.1,10.3-11.1,10.1,4.9,10.1,10.7" transform="translate(-51.9 -88.7)"/>
    <rect class="cls-4" x="292.4" y="157.9" width="1.4" height="31.51"/>
    <polygon class="cls-4" points="315.9 170.9 307.4 170.9 307.4 180.2 316.9 180.2 316.9 181.5 305.9 181.5 305.9 160.3 316.4 160.3 316.4 161.5 307.4 161.5 307.4 169.7 315.9 169.7 315.9 170.9"/>
    <path class="cls-4" d="M386.9,269.5a13.8,13.8,0,0,1-5.7,1.1c-5.1,0-10.1-3.3-10.1-10.8s4.1-11.1,10.8-11.1a11.3,11.3,0,0,1,4.9.9l-.4,1.3a9.7,9.7,0,0,0-4.5-.9c-5.7,0-9.2,3.7-9.2,9.8s3.3,9.5,9,9.5a11.4,11.4,0,0,0,4.8-1Z" transform="translate(-51.9 -88.7)"/>
    <path class="cls-4" d="M392,249v12.8c0,5.5,2.5,7.5,5.6,7.5s6-2.2,6-7.5V249h1.5v12.7c0,6.5-3.5,8.9-7.5,8.9s-7.1-2.1-7.1-8.7V249Z" transform="translate(-51.9 -88.7)"/>
    <path class="cls-4" d="M419.5,261.6l-2.6-7.1c-.5-1.5-.7-2.6-1.1-3.8h0c-.3,1.2-.7,2.3-1.1,3.7l-2.6,7.2Zm-7.9,1.2-2.6,7.5h-1.6l7.7-21.3h1.5l7.6,21.3h-1.5l-2.7-7.5Z" transform="translate(-51.9 -88.7)"/>
    <path class="cls-4" d="M429,269l3.4.2c6.8,0,10.2-3.9,10.2-10s-2.9-9.1-9.8-9.1a17.6,17.6,0,0,0-3.8.4Zm-1.5-19.7a29.7,29.7,0,0,1,5.4-.4c3.9,0,6.8,1,8.6,2.9s2.6,4.1,2.6,7.3a11.9,11.9,0,0,1-2.7,8.1c-1.9,2-5.1,3.2-9.2,3.2h-4.7Z" transform="translate(-51.9 -88.7)"/>
    <path class="cls-4" d="M455.9,269.3c5,0,7.8-4.5,7.8-9.8s-2.4-9.6-7.8-9.6-7.8,4.9-7.8,9.9,2.7,9.5,7.8,9.5Zm-.1,1.3c-5.2,0-9.3-4.1-9.3-10.7s4.2-11.2,9.5-11.2,9.3,4.2,9.3,10.7-4.6,11.2-9.5,11.2Z" transform="translate(-51.9 -88.7)"/>
    <path class="cls-4" d="M470.6,259.3h3.3c3.3,0,5.4-1.8,5.4-4.6s-2.3-4.6-5.7-4.6a10.1,10.1,0,0,0-3,.3Zm-1.6-10a23.8,23.8,0,0,1,4.6-.4c2.8,0,4.6.6,5.8,1.7a5.5,5.5,0,0,1,1.5,3.8c0,2.9-1.7,4.7-4.2,5.6h0c1.7.5,2.8,2.2,3.3,4.5s1.1,4.9,1.6,5.7H480a26,26,0,0,1-1.3-5.1c-.7-3.1-2-4.5-4.8-4.6h-3.3v9.7H469Z" transform="translate(-51.9 -88.7)"/>
    <rect class="cls-4" x="163.4" y="145" width="6.2" height="48.29"/>
  </g>
</svg>
