<?xml version="1.0" encoding="utf-8"?>
<!-- Generator: Adobe Illustrator 16.0.0, SVG Export Plug-In . SVG Version: 6.00 Build 0)  -->
<!DOCTYPE svg PUBLIC "-//W3C//DTD SVG 1.1//EN" "http://www.w3.org/Graphics/SVG/1.1/DTD/svg11.dtd">
<svg version="1.1" id="Capa_1" xmlns="http://www.w3.org/2000/svg" xmlns:xlink="http://www.w3.org/1999/xlink" x="0px" y="0px"
	 width="409.602px" height="409.602px" viewBox="0 0 409.602 409.602" enable-background="new 0 0 409.602 409.602"
	 xml:space="preserve">
<g>
	<path fill="#FFDA44" d="M0,204.801C0,91.691,91.691,0,204.801,0c113.105,0,204.801,91.691,204.801,204.801l-204.801,17.808
		L0,204.801z M0,204.801"/>
	<path fill="#D80027" d="M27.406,307.199c35.41,61.215,101.59,102.402,177.395,102.402s141.98-41.188,177.395-102.402
		l-177.395-13.355L27.406,307.199z M27.406,307.199"/>
	<path fill="#0052B4" d="M382.195,307.199c17.426-30.121,27.406-65.094,27.406-102.398H0c0,37.304,9.98,72.277,27.406,102.398
		H382.195z M382.195,307.199"/>
	<path fill="#FFDA44" d="M276.035,204.801c0,39.339-31.895,71.234-71.234,71.234c-39.344,0-71.235-31.895-71.235-71.234
		c0-39.344,31.891-71.235,71.235-71.235C244.141,133.566,276.035,165.457,276.035,204.801L276.035,204.801z M276.035,204.801"/>
	<path fill="#338AF3" d="M204.801,249.32c-24.551,0-44.524-19.973-44.524-44.519v-26.715c0-24.547,19.973-44.52,44.524-44.52
		c24.547,0,44.52,19.973,44.52,44.52v26.715C249.32,229.348,229.348,249.32,204.801,249.32L204.801,249.32z M204.801,249.32"/>
	<path d="M276.035,97.949h-53.426c0-9.836-7.977-17.808-17.809-17.808c-9.836,0-17.809,7.972-17.809,17.808h-53.43
		c0,9.836,8.571,17.809,18.403,17.809h-0.594c0,9.836,7.973,17.808,17.809,17.808c0,9.836,7.976,17.809,17.812,17.809h35.617
		c9.836,0,17.809-7.973,17.809-17.809c9.836,0,17.809-7.972,17.809-17.808h-0.594C267.469,115.758,276.035,107.781,276.035,97.949
		L276.035,97.949z M276.035,97.949"/>
</g>
</svg>
