<?xml version="1.0" encoding="utf-8"?>
<!-- Generator: Adobe Illustrator 16.0.0, SVG Export Plug-In . SVG Version: 6.00 Build 0)  -->
<!DOCTYPE svg PUBLIC "-//W3C//DTD SVG 1.1//EN" "http://www.w3.org/Graphics/SVG/1.1/DTD/svg11.dtd">
<svg version="1.1" id="Capa_1" xmlns="http://www.w3.org/2000/svg" xmlns:xlink="http://www.w3.org/1999/xlink" x="0px" y="0px"
	 width="32px" height="32.009px" viewBox="0 0 32 32.009" enable-background="new 0 0 32 32.009" xml:space="preserve">
<g>
	<defs>
		<rect id="SVGID_1_" width="32" height="32.009"/>
	</defs>
	<clipPath id="SVGID_2_">
		<use xlink:href="#SVGID_1_"  overflow="visible"/>
	</clipPath>
	<path clip-path="url(#SVGID_2_)" fill="none" stroke="#00A0DE" stroke-width="2" stroke-miterlimit="10" d="M6,24c-3,0-5-2.238-5-5
		c0-2.761,2-5,5-5V24z"/>
	<path clip-path="url(#SVGID_2_)" fill="none" stroke="#00A0DE" stroke-width="2" stroke-miterlimit="10" d="M26,14c3,0,5,2.238,5,5
		c0,2.761-2,5-5,5V14z"/>
	<path clip-path="url(#SVGID_2_)" fill="none" stroke="#00A0DE" stroke-width="2" stroke-miterlimit="10" d="M29,27
		c0,1.2-0.896,2-2,2"/>
	
		<line clip-path="url(#SVGID_2_)" fill="none" stroke="#00A0DE" stroke-width="2" stroke-miterlimit="10" x1="23" y1="29" x2="27" y2="29"/>
	
		<circle clip-path="url(#SVGID_2_)" fill="none" stroke="#00A0DE" stroke-width="2" stroke-miterlimit="10" cx="20.526" cy="29.009" r="2"/>
	<path clip-path="url(#SVGID_2_)" fill="none" stroke="#00A0DE" stroke-width="2" stroke-miterlimit="10" d="M6,11.006
		C6,5.479,10.478,1,16,1c5.522,0,10,4.479,10,10.006"/>
</g>
</svg>
