<?xml version="1.0" encoding="utf-8"?>
<!-- Generator: Adobe Illustrator 16.0.0, SVG Export Plug-In . SVG Version: 6.00 Build 0)  -->
<!DOCTYPE svg PUBLIC "-//W3C//DTD SVG 1.1//EN" "http://www.w3.org/Graphics/SVG/1.1/DTD/svg11.dtd">
<svg version="1.1" id="Capa_1" xmlns="http://www.w3.org/2000/svg" xmlns:xlink="http://www.w3.org/1999/xlink" x="0px" y="0px"
	 width="409.602px" height="409.602px" viewBox="0 0 409.602 409.602" enable-background="new 0 0 409.602 409.602"
	 xml:space="preserve">
<g>
	<path fill="#F0F0F0" d="M409.602,204.801c0,113.105-91.695,204.8-204.801,204.8C91.691,409.602,0,317.906,0,204.801
		C0,91.691,91.691,0,204.801,0C317.906,0,409.602,91.691,409.602,204.801L409.602,204.801z M409.602,204.801"/>
	<path fill="#D80027" d="M409.602,204.801c0-88.059-55.578-163.125-133.566-192.063v384.125
		C354.023,367.926,409.602,292.859,409.602,204.801L409.602,204.801z M409.602,204.801"/>
	<path fill="#D80027" d="M0,204.801c0,88.058,55.578,163.125,133.566,192.062V12.738C55.578,41.676,0,116.742,0,204.801L0,204.801z
		 M0,204.801"/>
</g>
</svg>
